{
    "module": "segdepth_hairmatting",
    "comment":
    [
        "QCOM performanceMode(BALANCED , HIGH_PERFORMANCE , POWER_SAVER , SYSTEM_SETTINGS , SUSTAINED_HIGH_PERFORMANCE ,",
        "BURST , LOW_POWER_SAVER , HIGH_POWER_SAVER , LOW_BALANCED)",

        "QCOM runtime(CPU_FLOAT32, GPU_FLOAT32_16_HYBRID, GPU_FLOAT16, DSP_FIXED8_TF, AIP_FIXED8_TF)",

        "MTK performanceMode(kLowPower , kFastSingleAnswer , kSustainedSpeed)",
        "Neuron runtime(NEURON_RUNTIME)",
        "WinTFLite runtime(UNKNOWN)",
        "WinTFLite performanceMode(UNKNOWN)",
        "MTK runtime(FLOAT, NNAPI, NEURON_DELEGATE)",

        "ImageWidth/ImageHeight(576, 768)",
        "ROIMode(inner, outer)"
    ],
    "product": "DX-1",
    "VENDOR": "MTK",
    "MTK_VERSION":"5.0",
    "BrandModels": "BrandA_oplus",
    "param":
    [
        {
            "product_name": "8350",
            "SegMode": "DSP",
            "DepthMode": "DSP",
            "SegPerformanceMode": "POWER_SAVER",
            "DepthPerformanceMode": "POWER_SAVER",
            "SegEnable": true,
            "DepthEnable": true,
            "MattingEnable": true,
            "HairMattingRuntime": "DSP_FIXED8_TF",
            "HairMattingPerformanceMode": "POWER_SAVER",
            "HairMattingImageWidth": 576,
            "HairMattingImageHeight": 768,
            "HairMattingROIMode": "inner"
        },
        {
            "product_name": "8250",
            "SegMode": "DSP",
            "DepthMode": "DSP",
            "SegPerformanceMode": "POWER_SAVER",
            "DepthPerformanceMode": "POWER_SAVER",
            "SegEnable": true,
            "DepthEnable": true,
            "MattingEnable": true,
            "HairMattingRuntime": "DSP_FIXED8_TF",
            "HairMattingPerformanceMode": "POWER_SAVER",
            "HairMattingImageWidth": 576,
            "HairMattingImageHeight": 768,
            "HairMattingROIMode": "inner"
        },
        {
            "product_name": "7125",
            "SegMode": "DSP",
            "DepthMode": "DSP",
            "SegPerformanceMode": "POWER_SAVER",
            "DepthPerformanceMode": "POWER_SAVER",
            "SegEnable": true,
            "DepthEnable": false,
            "MattingEnable": false
        },
        {
            "product_name": "5G-B",
            "SegMode": "DSP",
            "DepthMode": "DSP",
            "SegPerformanceMode": "kSustainedSpeed",
            "DepthPerformanceMode": "kSustainedSpeed",
            "SegEnable": true,
            "DepthEnable": false,
            "MattingEnable": false
        },
        {
            "product_name": "DX-1",
            "SegMode": "NEURON_RUNTIME",
            "DepthMode": "NEURON_RUNTIME",
            "SegPerformanceMode": "NEURONRUNTIME_PREFER_POWER",
            "DepthPerformanceMode": "NEURONRUNTIME_PREFER_POWER",
             "SegResizeOnCpu":true,
            "OutputMask_WH":"864,1152",
            "SegModel_In_WHC":"432,576,3",
            "SegModel_Out_WHC":"432,576,3",
            "BoostValue":100,
            "segPersonScale":0.14777666330337524,
            "segPersonZeroPoint":127,
            "segHairScale":0.20648494362831116,
            "segHairZeroPoint":128,
            "depthScale": 0.00390625,
            "depthZeroPoint":0,
            "DepthEnable": true,
            "SegEnable": true,
            "MattingEnable": true,
            "HairMattingRuntime": "NEURON_RUNTIME",
            "HairMattingPerformanceMode": "kSustainedSpeed",
            "HairMattingImageWidth": 576,
            "HairMattingImageHeight": 768,
            "HairMattingROIMode": "inner",
            "Preference": 1,
            "BoostValue": 100,
            "Scale": 0.0054622539319098,
            "ZeroPoint": 47,
            "NeonPerformanceMode":0,
            "BokehLutPerformanceMode":0
        },
        {
            "product_name": "NEXT-D",
            "SegMode": "NEURON_RUNTIME",
            "DepthMode": "NEURON_RUNTIME",
            "SegPerformanceMode": "NEURONRUNTIME_PREFER_POWER",
            "DepthPerformanceMode": "NEURONRUNTIME_PREFER_POWER",
            "BoostValue":100,
            "segPersonScale":0.1875109076499939,
            "segPersonZeroPoint":128,
            "segHairScale":0.29242709279060364,
            "segHairZeroPoint":128,
            "depthScale": 0.00390625,
            "depthZeroPoint":0,
            "DepthEnable": true,
            "SegEnable": true,
            "MattingEnable": true,
            "HairMattingRuntime": "NEURON_RUNTIME",
            "HairMattingPerformanceMode": "kSustainedSpeed",
            "HairMattingImageWidth": 576,
            "HairMattingImageHeight": 768,
            "HairMattingROIMode": "inner",
            "Preference": 1,
            "BoostValue": 100,
            "Scale": 0.0054622539319098,
            "ZeroPoint": 47,
            "NeonPerformanceMode":0,
            "BokehLutPerformanceMode":0
        },
        {
            "product_name": "NEXT-A",
            "SegMode": "DSP",
            "DepthMode": "DSP",
            "SegPerformanceMode": "kSustainedSpeed",
            "DepthPerformanceMode": "kSustainedSpeed",
            "SegEnable": true,
            "DepthEnable": false,
            "MattingEnable": false
        }
    ]
}
