0 	0 	0 
0 	0 	62 
0 	0 	133 
0 	0 	196 
0 	0 	260 
0 	0 	325 
0 	0 	389 
0 	0 	454 
0 	0 	518 
0 	0 	579 
0 	0 	643 
0 	0 	706 
0 	0 	769 
0 	0 	827 
0 	0 	892 
0 	0 	958 
0 	0 	1023 
0 	62 	0 
0 	62 	62 
0 	62 	133 
0 	62 	196 
0 	62 	260 
0 	62 	325 
0 	62 	389 
0 	62 	454 
0 	62 	518 
0 	62 	579 
0 	62 	643 
0 	62 	706 
0 	62 	769 
0 	62 	827 
0 	62 	892 
0 	62 	958 
0 	62 	1023 
0 	133 	0 
0 	133 	62 
0 	133 	133 
0 	133 	196 
0 	133 	260 
0 	133 	325 
0 	133 	389 
0 	133 	454 
0 	133 	518 
0 	133 	579 
0 	133 	643 
0 	133 	706 
0 	133 	769 
0 	133 	827 
0 	133 	892 
0 	133 	958 
0 	133 	1023 
0 	196 	0 
0 	196 	62 
0 	196 	133 
0 	196 	196 
0 	196 	260 
0 	196 	325 
0 	196 	389 
0 	196 	454 
0 	196 	518 
0 	196 	579 
0 	196 	643 
0 	196 	706 
0 	196 	769 
0 	196 	827 
0 	196 	892 
0 	196 	958 
0 	196 	1023 
0 	260 	0 
0 	260 	62 
0 	260 	133 
0 	260 	196 
0 	260 	260 
0 	260 	325 
0 	260 	389 
0 	260 	454 
0 	260 	518 
0 	260 	579 
0 	260 	643 
0 	260 	706 
0 	260 	769 
0 	260 	827 
0 	260 	892 
0 	260 	958 
0 	260 	1023 
0 	325 	0 
0 	325 	62 
0 	325 	133 
0 	325 	196 
0 	325 	260 
0 	325 	325 
0 	325 	389 
0 	325 	454 
0 	325 	518 
0 	325 	579 
0 	325 	643 
0 	325 	706 
0 	325 	769 
0 	325 	827 
0 	325 	892 
0 	325 	958 
0 	325 	1023 
0 	389 	0 
0 	389 	62 
0 	389 	133 
0 	389 	196 
0 	389 	260 
0 	389 	325 
0 	389 	389 
0 	389 	454 
0 	389 	518 
0 	389 	579 
0 	389 	643 
0 	389 	706 
0 	389 	769 
0 	389 	827 
0 	389 	892 
0 	389 	958 
0 	389 	1023 
0 	454 	0 
0 	454 	62 
0 	454 	133 
0 	454 	196 
0 	454 	260 
0 	454 	325 
0 	454 	389 
0 	454 	454 
0 	454 	518 
0 	454 	579 
0 	454 	643 
0 	454 	706 
0 	454 	769 
0 	454 	827 
0 	454 	892 
0 	454 	958 
0 	454 	1023 
0 	518 	0 
0 	518 	62 
0 	518 	133 
0 	518 	196 
0 	518 	260 
0 	518 	325 
0 	518 	389 
0 	518 	454 
0 	518 	518 
0 	518 	579 
0 	518 	643 
0 	518 	706 
0 	518 	769 
0 	518 	827 
0 	518 	892 
0 	518 	958 
0 	518 	1023 
0 	579 	0 
0 	579 	62 
0 	579 	133 
0 	579 	196 
0 	579 	260 
0 	579 	325 
0 	579 	389 
0 	579 	454 
0 	579 	518 
0 	579 	579 
0 	579 	643 
0 	579 	706 
0 	579 	769 
0 	579 	827 
0 	579 	892 
0 	579 	958 
0 	579 	1023 
0 	643 	0 
0 	643 	62 
0 	643 	133 
0 	643 	196 
0 	643 	260 
0 	643 	325 
0 	643 	389 
0 	643 	454 
0 	643 	518 
0 	643 	579 
0 	643 	643 
0 	643 	706 
0 	643 	769 
0 	643 	827 
0 	643 	892 
0 	643 	958 
0 	643 	1023 
0 	706 	0 
0 	706 	62 
0 	706 	133 
0 	706 	196 
0 	706 	260 
0 	706 	325 
0 	706 	389 
0 	706 	454 
0 	706 	518 
0 	706 	579 
0 	706 	643 
0 	706 	706 
0 	706 	769 
0 	706 	827 
0 	706 	892 
0 	706 	958 
0 	706 	1023 
0 	769 	0 
0 	769 	62 
0 	769 	133 
0 	769 	196 
0 	769 	260 
0 	769 	325 
0 	769 	389 
0 	769 	454 
0 	769 	518 
0 	769 	579 
0 	769 	643 
0 	769 	706 
0 	769 	769 
0 	769 	827 
0 	769 	892 
0 	769 	958 
0 	769 	1023 
0 	827 	0 
0 	827 	62 
0 	827 	133 
0 	827 	196 
0 	827 	260 
0 	827 	325 
0 	827 	389 
0 	827 	454 
0 	827 	518 
0 	827 	579 
0 	827 	643 
0 	827 	706 
0 	827 	769 
0 	827 	827 
0 	827 	892 
0 	827 	958 
0 	827 	1023 
0 	892 	0 
0 	892 	62 
0 	892 	133 
0 	892 	196 
0 	892 	260 
0 	892 	325 
0 	892 	389 
0 	892 	454 
0 	892 	518 
0 	892 	579 
0 	892 	643 
0 	892 	706 
0 	892 	769 
0 	892 	827 
0 	892 	892 
0 	892 	958 
0 	892 	1023 
0 	958 	0 
0 	958 	62 
0 	958 	133 
0 	958 	196 
0 	958 	260 
0 	958 	325 
0 	958 	389 
0 	958 	454 
0 	958 	518 
0 	958 	579 
0 	958 	643 
0 	958 	706 
0 	958 	769 
0 	958 	827 
0 	958 	892 
0 	958 	958 
0 	958 	1023 
0 	1023 	0 
0 	1023 	62 
0 	1023 	133 
0 	1023 	196 
0 	1023 	260 
0 	1023 	325 
0 	1023 	389 
0 	1023 	454 
0 	1023 	518 
0 	1023 	579 
0 	1023 	643 
0 	1023 	706 
0 	1023 	769 
0 	1023 	827 
0 	1023 	892 
0 	1023 	958 
0 	1023 	1023 
62 	0 	0 
62 	0 	62 
62 	0 	133 
62 	0 	196 
62 	0 	260 
62 	0 	325 
62 	0 	389 
62 	0 	454 
62 	0 	518 
62 	0 	579 
62 	0 	643 
62 	0 	706 
62 	0 	769 
62 	0 	827 
62 	0 	892 
62 	0 	958 
62 	0 	1023 
62 	62 	0 
62 	62 	62 
62 	62 	133 
62 	62 	196 
62 	62 	260 
62 	62 	325 
62 	62 	389 
62 	62 	454 
62 	62 	518 
62 	62 	579 
62 	62 	643 
62 	62 	706 
62 	62 	769 
62 	62 	827 
62 	62 	892 
62 	62 	958 
62 	62 	1023 
62 	133 	0 
62 	133 	62 
62 	133 	133 
62 	133 	196 
62 	133 	260 
62 	133 	325 
62 	133 	389 
62 	133 	454 
62 	133 	518 
62 	133 	579 
62 	133 	643 
62 	133 	706 
62 	133 	769 
62 	133 	827 
62 	133 	892 
62 	133 	958 
62 	133 	1023 
62 	196 	0 
62 	196 	62 
62 	196 	133 
62 	196 	196 
62 	196 	260 
62 	196 	325 
62 	196 	389 
62 	196 	454 
62 	196 	518 
62 	196 	579 
62 	196 	643 
62 	196 	706 
62 	196 	769 
62 	196 	827 
62 	196 	892 
62 	196 	958 
62 	196 	1023 
62 	260 	0 
62 	260 	62 
62 	260 	133 
62 	260 	196 
62 	260 	260 
62 	260 	325 
62 	260 	389 
62 	260 	454 
62 	260 	518 
62 	260 	579 
62 	260 	643 
62 	260 	706 
62 	260 	769 
62 	260 	827 
62 	260 	892 
62 	260 	958 
62 	260 	1023 
62 	325 	0 
62 	325 	62 
62 	325 	133 
62 	325 	196 
62 	325 	260 
62 	325 	325 
62 	325 	389 
62 	325 	454 
62 	325 	518 
62 	325 	579 
62 	325 	643 
62 	325 	706 
62 	325 	769 
62 	325 	827 
62 	325 	892 
62 	325 	958 
62 	325 	1023 
62 	389 	0 
62 	389 	62 
62 	389 	133 
62 	389 	196 
62 	389 	260 
62 	389 	325 
62 	389 	389 
62 	389 	454 
62 	389 	518 
62 	389 	579 
62 	389 	643 
62 	389 	706 
62 	389 	769 
62 	389 	827 
62 	389 	892 
62 	389 	958 
62 	389 	1023 
62 	454 	0 
62 	454 	62 
62 	454 	133 
62 	454 	196 
62 	454 	260 
62 	454 	325 
62 	454 	389 
62 	454 	454 
62 	454 	518 
62 	454 	579 
62 	454 	643 
62 	454 	706 
62 	454 	769 
62 	454 	827 
62 	454 	892 
62 	454 	958 
62 	454 	1023 
62 	518 	0 
62 	518 	62 
62 	518 	133 
62 	518 	196 
62 	518 	260 
62 	518 	325 
62 	518 	389 
62 	518 	454 
62 	518 	518 
62 	518 	579 
62 	518 	643 
62 	518 	706 
62 	518 	769 
62 	518 	827 
62 	518 	892 
62 	518 	958 
62 	518 	1023 
62 	579 	0 
62 	579 	62 
62 	579 	133 
62 	579 	196 
62 	579 	260 
62 	579 	325 
62 	579 	389 
62 	579 	454 
62 	579 	518 
62 	579 	579 
62 	579 	643 
62 	579 	706 
62 	579 	769 
62 	579 	827 
62 	579 	892 
62 	579 	958 
62 	579 	1023 
62 	643 	0 
62 	643 	62 
62 	643 	133 
62 	643 	196 
62 	643 	260 
62 	643 	325 
62 	643 	389 
62 	643 	454 
62 	643 	518 
62 	643 	579 
62 	643 	643 
62 	643 	706 
62 	643 	769 
62 	643 	827 
62 	643 	892 
62 	643 	958 
62 	643 	1023 
62 	706 	0 
62 	706 	62 
62 	706 	133 
62 	706 	196 
62 	706 	260 
62 	706 	325 
62 	706 	389 
62 	706 	454 
62 	706 	518 
62 	706 	579 
62 	706 	643 
62 	706 	706 
62 	706 	769 
62 	706 	827 
62 	706 	892 
62 	706 	958 
62 	706 	1023 
62 	769 	0 
62 	769 	62 
62 	769 	133 
62 	769 	196 
62 	769 	260 
62 	769 	325 
62 	769 	389 
62 	769 	454 
62 	769 	518 
62 	769 	579 
62 	769 	643 
62 	769 	706 
62 	769 	769 
62 	769 	827 
62 	769 	892 
62 	769 	958 
62 	769 	1023 
62 	827 	0 
62 	827 	62 
62 	827 	133 
62 	827 	196 
62 	827 	260 
62 	827 	325 
62 	827 	389 
62 	827 	454 
62 	827 	518 
62 	827 	579 
62 	827 	643 
62 	827 	706 
62 	827 	769 
62 	827 	827 
62 	827 	892 
62 	827 	958 
62 	827 	1023 
62 	892 	0 
62 	892 	62 
62 	892 	133 
62 	892 	196 
62 	892 	260 
62 	892 	325 
62 	892 	389 
62 	892 	454 
62 	892 	518 
62 	892 	579 
62 	892 	643 
62 	892 	706 
62 	892 	769 
62 	892 	827 
62 	892 	892 
62 	892 	958 
62 	892 	1023 
62 	958 	0 
62 	958 	62 
62 	958 	133 
62 	958 	196 
62 	958 	260 
62 	958 	325 
62 	958 	389 
62 	958 	454 
62 	958 	518 
62 	958 	579 
62 	958 	643 
62 	958 	706 
62 	958 	769 
62 	958 	827 
62 	958 	892 
62 	958 	958 
62 	958 	1023 
62 	1023 	0 
62 	1023 	62 
62 	1023 	133 
62 	1023 	196 
62 	1023 	260 
62 	1023 	325 
62 	1023 	389 
62 	1023 	454 
62 	1023 	518 
62 	1023 	579 
62 	1023 	643 
62 	1023 	706 
62 	1023 	769 
62 	1023 	827 
62 	1023 	892 
62 	1023 	958 
62 	1023 	1023 
133 	0 	0 
133 	0 	62 
133 	0 	133 
133 	0 	196 
133 	0 	260 
133 	0 	325 
133 	0 	389 
133 	0 	454 
133 	0 	518 
133 	0 	579 
133 	0 	643 
133 	0 	706 
133 	0 	769 
133 	0 	827 
133 	0 	892 
133 	0 	958 
133 	0 	1023 
133 	62 	0 
133 	62 	62 
133 	62 	133 
133 	62 	196 
133 	62 	260 
133 	62 	325 
133 	62 	389 
133 	62 	454 
133 	62 	518 
133 	62 	579 
133 	62 	643 
133 	62 	706 
133 	62 	769 
133 	62 	827 
133 	62 	892 
133 	62 	958 
133 	62 	1023 
133 	133 	0 
133 	133 	62 
133 	133 	133 
133 	133 	196 
133 	133 	260 
133 	133 	325 
133 	133 	389 
133 	133 	454 
133 	133 	518 
133 	133 	579 
133 	133 	643 
133 	133 	706 
133 	133 	769 
133 	133 	827 
133 	133 	892 
133 	133 	958 
133 	133 	1023 
133 	196 	0 
133 	196 	62 
133 	196 	133 
133 	196 	196 
133 	196 	260 
133 	196 	325 
133 	196 	389 
133 	196 	454 
133 	196 	518 
133 	196 	579 
133 	196 	643 
133 	196 	706 
133 	196 	769 
133 	196 	827 
133 	196 	892 
133 	196 	958 
133 	196 	1023 
133 	260 	0 
133 	260 	62 
133 	260 	133 
133 	260 	196 
133 	260 	260 
133 	260 	325 
133 	260 	389 
133 	260 	454 
133 	260 	518 
133 	260 	579 
133 	260 	643 
133 	260 	706 
133 	260 	769 
133 	260 	827 
133 	260 	892 
133 	260 	958 
133 	260 	1023 
133 	325 	0 
133 	325 	62 
133 	325 	133 
133 	325 	196 
133 	325 	260 
133 	325 	325 
133 	325 	389 
133 	325 	454 
133 	325 	518 
133 	325 	579 
133 	325 	643 
133 	325 	706 
133 	325 	769 
133 	325 	827 
133 	325 	892 
133 	325 	958 
133 	325 	1023 
133 	389 	0 
133 	389 	62 
133 	389 	133 
133 	389 	196 
133 	389 	260 
133 	389 	325 
133 	389 	389 
133 	389 	454 
133 	389 	518 
133 	389 	579 
133 	389 	643 
133 	389 	706 
133 	389 	769 
133 	389 	827 
133 	389 	892 
133 	389 	958 
133 	389 	1023 
133 	454 	0 
133 	454 	62 
133 	454 	133 
133 	454 	196 
133 	454 	260 
133 	454 	325 
133 	454 	389 
133 	454 	454 
133 	454 	518 
133 	454 	579 
133 	454 	643 
133 	454 	706 
133 	454 	769 
133 	454 	827 
133 	454 	892 
133 	454 	958 
133 	454 	1023 
133 	518 	0 
133 	518 	62 
133 	518 	133 
133 	518 	196 
133 	518 	260 
133 	518 	325 
133 	518 	389 
133 	518 	454 
133 	518 	518 
133 	518 	579 
133 	518 	643 
133 	518 	706 
133 	518 	769 
133 	518 	827 
133 	518 	892 
133 	518 	958 
133 	518 	1023 
133 	579 	0 
133 	579 	62 
133 	579 	133 
133 	579 	196 
133 	579 	260 
133 	579 	325 
133 	579 	389 
133 	579 	454 
133 	579 	518 
133 	579 	579 
133 	579 	643 
133 	579 	706 
133 	579 	769 
133 	579 	827 
133 	579 	892 
133 	579 	958 
133 	579 	1023 
133 	643 	0 
133 	643 	62 
133 	643 	133 
133 	643 	196 
133 	643 	260 
133 	643 	325 
133 	643 	389 
133 	643 	454 
133 	643 	518 
133 	643 	579 
133 	643 	643 
133 	643 	706 
133 	643 	769 
133 	643 	827 
133 	643 	892 
133 	643 	958 
133 	643 	1023 
133 	706 	0 
133 	706 	62 
133 	706 	133 
133 	706 	196 
133 	706 	260 
133 	706 	325 
133 	706 	389 
133 	706 	454 
133 	706 	518 
133 	706 	579 
133 	706 	643 
133 	706 	706 
133 	706 	769 
133 	706 	827 
133 	706 	892 
133 	706 	958 
133 	706 	1023 
133 	769 	0 
133 	769 	62 
133 	769 	133 
133 	769 	196 
133 	769 	260 
133 	769 	325 
133 	769 	389 
133 	769 	454 
133 	769 	518 
133 	769 	579 
133 	769 	643 
133 	769 	706 
133 	769 	769 
133 	769 	827 
133 	769 	892 
133 	769 	958 
133 	769 	1023 
133 	827 	0 
133 	827 	62 
133 	827 	133 
133 	827 	196 
133 	827 	260 
133 	827 	325 
133 	827 	389 
133 	827 	454 
133 	827 	518 
133 	827 	579 
133 	827 	643 
133 	827 	706 
133 	827 	769 
133 	827 	827 
133 	827 	892 
133 	827 	958 
133 	827 	1023 
133 	892 	0 
133 	892 	62 
133 	892 	133 
133 	892 	196 
133 	892 	260 
133 	892 	325 
133 	892 	389 
133 	892 	454 
133 	892 	518 
133 	892 	579 
133 	892 	643 
133 	892 	706 
133 	892 	769 
133 	892 	827 
133 	892 	892 
133 	892 	958 
133 	892 	1023 
133 	958 	0 
133 	958 	62 
133 	958 	133 
133 	958 	196 
133 	958 	260 
133 	958 	325 
133 	958 	389 
133 	958 	454 
133 	958 	518 
133 	958 	579 
133 	958 	643 
133 	958 	706 
133 	958 	769 
133 	958 	827 
133 	958 	892 
133 	958 	958 
133 	958 	1023 
133 	1023 	0 
133 	1023 	62 
133 	1023 	133 
133 	1023 	196 
133 	1023 	260 
133 	1023 	325 
133 	1023 	389 
133 	1023 	454 
133 	1023 	518 
133 	1023 	579 
133 	1023 	643 
133 	1023 	706 
133 	1023 	769 
133 	1023 	827 
133 	1023 	892 
133 	1023 	958 
133 	1023 	1023 
196 	0 	0 
196 	0 	62 
196 	0 	133 
196 	0 	196 
196 	0 	260 
196 	0 	325 
196 	0 	389 
196 	0 	454 
196 	0 	518 
196 	0 	579 
196 	0 	643 
196 	0 	706 
196 	0 	769 
196 	0 	827 
196 	0 	892 
196 	0 	958 
196 	0 	1023 
196 	62 	0 
196 	62 	62 
196 	62 	133 
196 	62 	196 
196 	62 	260 
196 	62 	325 
196 	62 	389 
196 	62 	454 
196 	62 	518 
196 	62 	579 
196 	62 	643 
196 	62 	706 
196 	62 	769 
196 	62 	827 
196 	62 	892 
196 	62 	958 
196 	62 	1023 
196 	133 	0 
196 	133 	62 
196 	133 	133 
196 	133 	196 
196 	133 	260 
196 	133 	325 
196 	133 	389 
196 	133 	454 
196 	133 	518 
196 	133 	579 
196 	133 	643 
196 	133 	706 
196 	133 	769 
196 	133 	827 
196 	133 	892 
196 	133 	958 
196 	133 	1023 
196 	196 	0 
196 	196 	62 
196 	196 	133 
196 	196 	196 
196 	196 	260 
196 	196 	325 
196 	196 	389 
196 	196 	454 
196 	196 	518 
196 	196 	579 
196 	196 	643 
196 	196 	706 
196 	196 	769 
196 	196 	827 
196 	196 	892 
196 	196 	958 
196 	196 	1023 
196 	260 	0 
196 	260 	62 
196 	260 	133 
196 	260 	196 
196 	260 	260 
196 	260 	325 
196 	260 	389 
196 	260 	454 
196 	260 	518 
196 	260 	579 
196 	260 	643 
196 	260 	706 
196 	260 	769 
196 	260 	827 
196 	260 	892 
196 	260 	958 
196 	260 	1023 
196 	325 	0 
196 	325 	62 
196 	325 	133 
196 	325 	196 
196 	325 	260 
196 	325 	325 
196 	325 	389 
196 	325 	454 
196 	325 	518 
196 	325 	579 
196 	325 	643 
196 	325 	706 
196 	325 	769 
196 	325 	827 
196 	325 	892 
196 	325 	958 
196 	325 	1023 
196 	389 	0 
196 	389 	62 
196 	389 	133 
196 	389 	196 
196 	389 	260 
196 	389 	325 
196 	389 	389 
196 	389 	454 
196 	389 	518 
196 	389 	579 
196 	389 	643 
196 	389 	706 
196 	389 	769 
196 	389 	827 
196 	389 	892 
196 	389 	958 
196 	389 	1023 
196 	454 	0 
196 	454 	62 
196 	454 	133 
196 	454 	196 
196 	454 	260 
196 	454 	325 
196 	454 	389 
196 	454 	454 
196 	454 	518 
196 	454 	579 
196 	454 	643 
196 	454 	706 
196 	454 	769 
196 	454 	827 
196 	454 	892 
196 	454 	958 
196 	454 	1023 
196 	518 	0 
196 	518 	62 
196 	518 	133 
196 	518 	196 
196 	518 	260 
196 	518 	325 
196 	518 	389 
196 	518 	454 
196 	518 	518 
196 	518 	579 
196 	518 	643 
196 	518 	706 
196 	518 	769 
196 	518 	827 
196 	518 	892 
196 	518 	958 
196 	518 	1023 
196 	579 	0 
196 	579 	62 
196 	579 	62 
196 	579 	196 
196 	579 	260 
196 	579 	325 
196 	579 	389 
196 	579 	454 
196 	579 	518 
196 	579 	579 
196 	579 	643 
196 	579 	706 
196 	579 	769 
196 	579 	827 
196 	579 	892 
196 	579 	958 
196 	579 	1023 
196 	643 	0 
196 	643 	62 
196 	643 	133 
196 	643 	196 
196 	643 	260 
196 	643 	325 
196 	643 	389 
196 	643 	454 
196 	643 	518 
196 	643 	579 
196 	643 	643 
196 	643 	706 
196 	643 	769 
196 	643 	827 
196 	643 	892 
196 	643 	958 
196 	643 	1023 
196 	706 	0 
196 	706 	62 
196 	706 	133 
196 	706 	196 
196 	706 	260 
196 	706 	325 
196 	706 	389 
196 	706 	454 
196 	706 	518 
196 	706 	579 
196 	706 	643 
196 	706 	706 
196 	706 	769 
196 	706 	827 
196 	706 	892 
196 	706 	958 
196 	706 	1023 
196 	769 	0 
196 	769 	62 
196 	769 	133 
196 	769 	196 
196 	769 	260 
196 	769 	325 
196 	769 	389 
196 	769 	454 
196 	769 	518 
196 	769 	579 
196 	769 	643 
196 	769 	706 
196 	769 	769 
196 	769 	827 
196 	769 	892 
196 	769 	958 
196 	769 	1023 
196 	827 	0 
196 	827 	62 
196 	827 	133 
196 	827 	196 
196 	827 	260 
196 	827 	325 
196 	827 	389 
196 	827 	454 
196 	827 	518 
196 	827 	579 
196 	827 	643 
196 	827 	706 
196 	827 	769 
196 	827 	827 
196 	827 	892 
196 	827 	958 
196 	827 	1023 
196 	892 	0 
196 	892 	62 
196 	892 	133 
196 	892 	196 
196 	892 	260 
196 	892 	325 
196 	892 	389 
196 	892 	454 
196 	892 	518 
196 	892 	579 
196 	892 	643 
196 	892 	706 
196 	892 	769 
196 	892 	827 
196 	892 	892 
196 	892 	958 
196 	892 	1023 
196 	958 	0 
196 	958 	62 
196 	958 	133 
196 	958 	196 
196 	958 	260 
196 	958 	325 
196 	958 	389 
196 	958 	454 
196 	958 	518 
196 	958 	579 
196 	958 	643 
196 	958 	706 
196 	958 	769 
196 	958 	827 
196 	958 	892 
196 	958 	958 
196 	958 	1023 
196 	1023 	0 
196 	1023 	62 
196 	1023 	133 
196 	1023 	196 
196 	1023 	260 
196 	1023 	325 
196 	1023 	389 
196 	1023 	454 
196 	1023 	518 
196 	1023 	579 
196 	1023 	643 
196 	1023 	706 
196 	1023 	769 
196 	1023 	827 
196 	1023 	892 
196 	1023 	958 
196 	1023 	1023 
260 	0 	0 
260 	0 	62 
260 	0 	133 
260 	0 	196 
260 	0 	260 
260 	0 	325 
260 	0 	389 
260 	0 	454 
260 	0 	518 
260 	0 	579 
260 	0 	643 
260 	0 	706 
260 	0 	769 
260 	0 	827 
260 	0 	892 
260 	0 	958 
260 	0 	1023 
260 	62 	0 
260 	62 	62 
260 	62 	133 
260 	62 	196 
260 	62 	260 
260 	62 	325 
260 	62 	389 
260 	62 	454 
260 	62 	518 
260 	62 	579 
260 	62 	643 
260 	62 	706 
260 	62 	769 
260 	62 	827 
260 	62 	892 
260 	62 	958 
260 	62 	1023 
260 	133 	0 
260 	133 	62 
260 	133 	133 
260 	133 	196 
260 	133 	260 
260 	133 	325 
260 	133 	389 
260 	133 	454 
260 	133 	518 
260 	133 	579 
260 	133 	643 
260 	133 	706 
260 	133 	769 
260 	133 	827 
260 	133 	892 
260 	133 	958 
260 	133 	1023 
260 	196 	0 
260 	196 	62 
260 	196 	133 
260 	196 	196 
260 	196 	260 
260 	196 	325 
260 	196 	389 
260 	196 	454 
260 	196 	518 
260 	196 	579 
260 	196 	643 
260 	196 	706 
260 	196 	769 
260 	196 	827 
260 	196 	892 
260 	196 	958 
260 	196 	1023 
260 	260 	0 
260 	260 	62 
260 	260 	133 
260 	260 	196 
260 	260 	260 
260 	260 	325 
260 	260 	389 
260 	260 	454 
260 	260 	518 
260 	260 	579 
260 	260 	643 
260 	260 	706 
260 	260 	769 
260 	260 	827 
260 	260 	892 
260 	260 	958 
260 	260 	1023 
260 	325 	0 
260 	325 	62 
260 	325 	133 
260 	325 	196 
260 	325 	260 
260 	325 	325 
260 	325 	389 
260 	325 	454 
260 	325 	518 
260 	325 	579 
260 	325 	643 
260 	325 	706 
260 	325 	769 
260 	325 	827 
260 	325 	892 
260 	325 	958 
260 	325 	1023 
260 	389 	0 
260 	389 	62 
260 	389 	133 
260 	389 	196 
260 	389 	260 
260 	389 	325 
260 	389 	389 
260 	389 	454 
260 	389 	518 
260 	389 	579 
260 	389 	643 
260 	389 	706 
260 	389 	769 
260 	389 	827 
260 	389 	892 
260 	389 	958 
260 	389 	1023 
260 	454 	0 
260 	454 	62 
260 	454 	133 
260 	454 	196 
260 	454 	260 
260 	454 	325 
260 	454 	389 
260 	454 	454 
260 	454 	518 
260 	454 	579 
260 	454 	643 
260 	454 	706 
260 	454 	769 
260 	454 	827 
260 	454 	892 
260 	454 	958 
260 	454 	1023 
260 	518 	0 
260 	518 	62 
260 	518 	133 
260 	518 	196 
260 	518 	260 
260 	518 	325 
260 	518 	389 
260 	518 	454 
260 	518 	518 
260 	518 	579 
260 	518 	643 
260 	518 	706 
260 	518 	769 
260 	518 	827 
260 	518 	892 
260 	518 	958 
260 	518 	1023 
260 	579 	0 
260 	579 	62 
260 	579 	133 
260 	579 	196 
260 	579 	260 
260 	579 	325 
260 	579 	389 
260 	579 	454 
260 	579 	518 
260 	579 	579 
260 	579 	643 
260 	579 	706 
260 	579 	769 
260 	579 	827 
260 	579 	892 
260 	579 	958 
260 	579 	1023 
260 	643 	0 
260 	643 	62 
260 	643 	133 
260 	643 	196 
260 	643 	260 
260 	643 	325 
260 	643 	389 
260 	643 	454 
260 	643 	518 
260 	643 	579 
260 	643 	643 
260 	643 	706 
260 	643 	769 
260 	643 	827 
260 	643 	892 
260 	643 	958 
260 	643 	1023 
260 	706 	0 
260 	706 	62 
260 	706 	133 
260 	706 	196 
260 	706 	260 
260 	706 	325 
260 	706 	389 
260 	706 	454 
260 	706 	518 
260 	706 	579 
260 	706 	643 
260 	706 	706 
260 	706 	769 
260 	706 	827 
260 	706 	892 
260 	706 	958 
260 	706 	1023 
260 	769 	0 
260 	769 	62 
260 	769 	133 
260 	769 	196 
260 	769 	260 
260 	769 	325 
260 	769 	389 
260 	769 	454 
260 	769 	518 
260 	769 	579 
260 	769 	643 
260 	769 	706 
260 	769 	769 
260 	769 	827 
260 	769 	892 
260 	769 	958 
260 	769 	1023 
260 	827 	0 
260 	827 	62 
260 	827 	133 
260 	827 	196 
260 	827 	260 
260 	827 	325 
260 	827 	389 
260 	827 	454 
260 	827 	518 
260 	827 	579 
260 	827 	643 
260 	827 	706 
260 	827 	769 
260 	827 	827 
260 	827 	892 
260 	827 	958 
260 	827 	1023 
260 	892 	0 
260 	892 	62 
260 	892 	133 
260 	892 	196 
260 	892 	260 
260 	892 	325 
260 	892 	389 
260 	892 	454 
260 	892 	518 
260 	892 	579 
260 	892 	643 
260 	892 	706 
260 	892 	769 
260 	892 	827 
260 	892 	892 
260 	892 	958 
260 	892 	1023 
260 	958 	0 
260 	958 	62 
260 	958 	133 
260 	958 	196 
260 	958 	260 
260 	958 	325 
260 	958 	389 
260 	958 	454 
260 	958 	518 
260 	958 	579 
260 	958 	643 
260 	958 	706 
260 	958 	769 
260 	958 	827 
260 	958 	892 
260 	958 	958 
260 	958 	1023 
260 	1023 	0 
260 	1023 	62 
260 	1023 	133 
260 	1023 	196 
260 	1023 	260 
260 	1023 	325 
260 	1023 	389 
260 	1023 	454 
260 	1023 	518 
260 	1023 	579 
260 	1023 	643 
260 	1023 	706 
260 	1023 	769 
260 	1023 	827 
260 	1023 	892 
260 	1023 	958 
260 	1023 	1023 
325 	0 	0 
325 	0 	62 
325 	0 	133 
325 	0 	196 
325 	0 	260 
325 	0 	325 
325 	0 	389 
325 	0 	454 
325 	0 	518 
325 	0 	579 
325 	0 	643 
325 	0 	706 
325 	0 	769 
325 	0 	827 
325 	0 	892 
325 	0 	958 
325 	0 	1023 
325 	62 	0 
325 	62 	62 
325 	62 	133 
325 	62 	196 
325 	62 	260 
325 	62 	325 
325 	62 	389 
325 	62 	454 
325 	62 	518 
325 	62 	579 
325 	62 	643 
325 	62 	706 
325 	62 	769 
325 	62 	827 
325 	62 	892 
325 	62 	958 
325 	62 	1023 
325 	133 	0 
325 	133 	62 
325 	133 	133 
325 	133 	196 
325 	133 	260 
325 	133 	325 
325 	133 	389 
325 	133 	454 
325 	133 	518 
325 	133 	579 
325 	133 	643 
325 	133 	706 
325 	133 	769 
325 	133 	827 
325 	133 	892 
325 	133 	958 
325 	133 	1023 
325 	196 	0 
325 	196 	62 
325 	196 	133 
325 	196 	196 
325 	196 	260 
325 	196 	325 
325 	196 	389 
325 	196 	454 
325 	196 	518 
325 	196 	579 
325 	196 	643 
325 	196 	706 
325 	196 	769 
325 	196 	827 
325 	196 	892 
325 	196 	958 
325 	196 	1023 
325 	260 	0 
325 	260 	62 
325 	260 	133 
325 	260 	196 
325 	260 	260 
325 	260 	325 
325 	260 	389 
325 	260 	454 
325 	260 	518 
325 	260 	579 
325 	260 	643 
325 	260 	706 
325 	260 	769 
325 	260 	827 
325 	260 	892 
325 	260 	958 
325 	260 	1023 
325 	325 	0 
325 	325 	62 
325 	325 	133 
325 	325 	196 
325 	325 	260 
325 	325 	325 
325 	325 	389 
325 	325 	454 
325 	325 	518 
325 	325 	579 
325 	325 	643 
325 	325 	706 
325 	325 	769 
325 	325 	827 
325 	325 	892 
325 	325 	958 
325 	325 	1023 
325 	389 	0 
325 	389 	62 
325 	389 	133 
325 	389 	196 
325 	389 	260 
325 	389 	325 
325 	389 	389 
325 	389 	454 
325 	389 	518 
325 	389 	579 
325 	389 	643 
325 	389 	706 
325 	389 	769 
325 	389 	827 
325 	389 	892 
325 	389 	958 
325 	389 	1023 
325 	454 	0 
325 	454 	62 
325 	454 	133 
325 	454 	196 
325 	454 	260 
325 	454 	325 
325 	454 	389 
325 	454 	454 
325 	454 	518 
325 	454 	579 
325 	454 	643 
325 	454 	706 
325 	454 	769 
325 	454 	827 
325 	454 	892 
325 	454 	958 
325 	454 	1023 
325 	518 	0 
325 	518 	62 
325 	518 	133 
325 	518 	196 
325 	518 	260 
325 	518 	325 
325 	518 	389 
325 	518 	454 
325 	518 	518 
325 	518 	579 
325 	518 	643 
325 	518 	706 
325 	518 	769 
325 	518 	827 
325 	518 	892 
325 	518 	958 
325 	518 	1023 
325 	579 	0 
325 	579 	62 
325 	579 	133 
325 	579 	196 
325 	579 	260 
325 	579 	325 
325 	579 	389 
325 	579 	454 
325 	579 	518 
325 	579 	579 
325 	579 	643 
325 	579 	706 
325 	579 	769 
325 	579 	827 
325 	579 	892 
325 	579 	958 
325 	579 	1023 
325 	643 	0 
325 	643 	62 
325 	643 	133 
325 	643 	196 
325 	643 	260 
325 	643 	325 
325 	643 	389 
325 	643 	454 
325 	643 	518 
325 	643 	579 
325 	643 	643 
325 	643 	706 
325 	643 	769 
325 	643 	827 
325 	643 	892 
325 	643 	958 
325 	643 	1023 
325 	706 	0 
325 	706 	62 
325 	706 	133 
325 	706 	196 
325 	706 	260 
325 	706 	325 
325 	706 	389 
325 	706 	454 
325 	706 	518 
325 	706 	579 
325 	706 	643 
325 	706 	706 
325 	706 	769 
325 	706 	827 
325 	706 	892 
325 	706 	958 
325 	706 	1023 
325 	769 	0 
325 	769 	62 
325 	769 	133 
325 	769 	196 
325 	769 	260 
325 	769 	325 
325 	769 	389 
325 	769 	454 
325 	769 	518 
325 	769 	579 
325 	769 	643 
325 	769 	706 
325 	769 	769 
325 	769 	827 
325 	769 	892 
325 	769 	958 
325 	769 	1023 
325 	827 	0 
325 	827 	62 
325 	827 	133 
325 	827 	196 
325 	827 	260 
325 	827 	325 
325 	827 	389 
325 	827 	454 
325 	827 	518 
325 	827 	579 
325 	827 	643 
325 	827 	706 
325 	827 	769 
325 	827 	827 
325 	827 	892 
325 	827 	958 
325 	827 	1023 
325 	892 	0 
325 	892 	62 
325 	892 	133 
325 	892 	196 
325 	892 	260 
325 	892 	325 
325 	892 	389 
325 	892 	454 
325 	892 	518 
325 	892 	579 
325 	892 	643 
325 	892 	706 
325 	892 	769 
325 	892 	827 
325 	892 	892 
325 	892 	958 
325 	892 	1023 
325 	958 	0 
325 	958 	62 
325 	958 	133 
325 	958 	196 
325 	958 	260 
325 	958 	325 
325 	958 	389 
325 	958 	454 
325 	958 	518 
325 	958 	579 
325 	958 	643 
325 	958 	706 
325 	958 	769 
325 	958 	827 
325 	958 	892 
325 	958 	958 
325 	958 	1023 
325 	1023 	0 
325 	1023 	62 
325 	1023 	133 
325 	1023 	196 
325 	1023 	260 
325 	1023 	325 
325 	1023 	389 
325 	1023 	454 
325 	1023 	518 
325 	1023 	579 
325 	1023 	643 
325 	1023 	706 
325 	1023 	769 
325 	1023 	827 
325 	1023 	892 
325 	1023 	958 
325 	1023 	1023 
389 	0 	0 
389 	0 	62 
389 	0 	133 
389 	0 	196 
389 	0 	260 
389 	0 	325 
389 	0 	389 
389 	0 	454 
389 	0 	518 
389 	0 	579 
389 	0 	643 
389 	0 	706 
389 	0 	769 
389 	0 	827 
389 	0 	892 
389 	0 	958 
389 	0 	1023 
389 	62 	0 
389 	62 	62 
389 	62 	133 
389 	62 	196 
389 	62 	260 
389 	62 	325 
389 	62 	389 
389 	62 	454 
389 	62 	518 
389 	62 	579 
389 	62 	643 
389 	62 	706 
389 	62 	769 
389 	62 	827 
389 	62 	892 
389 	62 	958 
389 	62 	1023 
389 	133 	0 
389 	133 	62 
389 	133 	133 
389 	133 	196 
389 	133 	260 
389 	133 	325 
389 	133 	389 
389 	133 	454 
389 	133 	518 
389 	133 	579 
389 	133 	643 
389 	133 	706 
389 	133 	769 
389 	133 	827 
389 	133 	892 
389 	133 	958 
389 	133 	1023 
389 	196 	0 
389 	196 	62 
389 	196 	133 
389 	196 	196 
389 	196 	260 
389 	196 	325 
389 	196 	389 
389 	196 	454 
389 	196 	518 
389 	196 	579 
389 	196 	643 
389 	196 	706 
389 	196 	769 
389 	196 	827 
389 	196 	892 
389 	196 	958 
389 	196 	1023 
389 	260 	0 
389 	260 	62 
389 	260 	133 
389 	260 	196 
389 	260 	260 
389 	260 	325 
389 	260 	389 
389 	260 	454 
389 	260 	518 
389 	260 	579 
389 	260 	643 
389 	260 	706 
389 	260 	769 
389 	260 	827 
389 	260 	892 
389 	260 	958 
389 	260 	1023 
389 	325 	0 
389 	325 	62 
389 	325 	133 
389 	325 	196 
389 	325 	260 
389 	325 	325 
389 	325 	389 
389 	325 	454 
389 	325 	518 
389 	325 	579 
389 	325 	643 
389 	325 	706 
389 	325 	769 
389 	325 	827 
389 	325 	892 
389 	325 	958 
389 	325 	1023 
389 	389 	0 
389 	389 	62 
389 	389 	133 
389 	389 	196 
389 	389 	260 
389 	389 	325 
389 	389 	389 
389 	389 	454 
389 	389 	518 
389 	389 	579 
389 	389 	643 
389 	389 	706 
389 	389 	769 
389 	389 	827 
389 	389 	892 
389 	389 	958 
389 	389 	1023 
389 	454 	0 
389 	454 	62 
389 	454 	133 
389 	454 	196 
389 	454 	260 
389 	454 	325 
389 	454 	389 
389 	454 	454 
389 	454 	518 
389 	454 	579 
389 	454 	643 
389 	454 	706 
389 	454 	769 
389 	454 	827 
389 	454 	892 
389 	454 	958 
389 	454 	1023 
389 	518 	0 
389 	518 	62 
389 	518 	133 
389 	518 	196 
389 	518 	260 
389 	518 	325 
389 	518 	389 
389 	518 	454 
389 	518 	518 
389 	518 	579 
389 	518 	643 
389 	518 	706 
389 	518 	769 
389 	518 	827 
389 	518 	892 
389 	518 	958 
389 	518 	1023 
389 	579 	0 
389 	579 	62 
389 	579 	133 
389 	579 	196 
389 	579 	260 
389 	579 	325 
389 	579 	389 
389 	579 	454 
389 	579 	518 
389 	579 	579 
389 	579 	643 
389 	579 	706 
389 	579 	769 
389 	579 	827 
389 	579 	892 
389 	579 	958 
389 	579 	1023 
389 	643 	0 
389 	643 	62 
389 	643 	133 
389 	643 	196 
389 	643 	260 
389 	643 	325 
389 	643 	389 
389 	643 	454 
389 	643 	518 
389 	643 	579 
389 	643 	643 
389 	643 	706 
389 	643 	769 
389 	643 	827 
389 	643 	892 
389 	643 	958 
389 	643 	1023 
389 	706 	0 
389 	706 	62 
389 	706 	133 
389 	706 	196 
389 	706 	260 
389 	706 	325 
389 	706 	389 
389 	706 	454 
389 	706 	518 
389 	706 	579 
389 	706 	643 
389 	706 	706 
389 	706 	769 
389 	706 	827 
389 	706 	892 
389 	706 	958 
389 	706 	1023 
389 	769 	0 
389 	769 	62 
389 	769 	133 
389 	769 	196 
389 	769 	260 
389 	769 	325 
389 	769 	389 
389 	769 	454 
389 	769 	518 
389 	769 	579 
389 	769 	643 
389 	769 	706 
389 	769 	769 
389 	769 	827 
389 	769 	892 
389 	769 	958 
389 	769 	1023 
389 	827 	0 
389 	827 	62 
389 	827 	133 
389 	827 	196 
389 	827 	260 
389 	827 	325 
389 	827 	389 
389 	827 	454 
389 	827 	518 
389 	827 	579 
389 	827 	643 
389 	827 	706 
389 	827 	769 
389 	827 	827 
389 	827 	892 
389 	827 	958 
389 	827 	1023 
389 	892 	0 
389 	892 	62 
389 	892 	133 
389 	892 	196 
389 	892 	260 
389 	892 	325 
389 	892 	389 
389 	892 	454 
389 	892 	518 
389 	892 	579 
389 	892 	643 
389 	892 	706 
389 	892 	769 
389 	892 	827 
389 	892 	892 
389 	892 	958 
389 	892 	1023 
389 	958 	0 
389 	958 	62 
389 	958 	133 
389 	958 	196 
389 	958 	260 
389 	958 	325 
389 	958 	389 
389 	958 	454 
389 	958 	518 
389 	958 	579 
389 	958 	643 
389 	958 	706 
389 	958 	769 
389 	958 	827 
389 	958 	892 
389 	958 	958 
389 	958 	1023 
389 	1023 	0 
389 	1023 	62 
389 	1023 	133 
389 	1023 	196 
389 	1023 	260 
389 	1023 	325 
389 	1023 	389 
389 	1023 	454 
389 	1023 	518 
389 	1023 	579 
389 	1023 	643 
389 	1023 	706 
389 	1023 	769 
389 	1023 	827 
389 	1023 	892 
389 	1023 	958 
389 	1023 	1023 
454 	0 	0 
454 	0 	62 
454 	0 	133 
454 	0 	196 
454 	0 	260 
454 	0 	325 
454 	0 	389 
454 	0 	454 
454 	0 	518 
454 	0 	579 
454 	0 	643 
454 	0 	706 
454 	0 	769 
454 	0 	827 
454 	0 	892 
454 	0 	958 
454 	0 	1023 
454 	62 	0 
454 	62 	62 
454 	62 	133 
454 	62 	196 
454 	62 	260 
454 	62 	325 
454 	62 	389 
454 	62 	454 
454 	62 	518 
454 	62 	579 
454 	62 	643 
454 	62 	706 
454 	62 	769 
454 	62 	827 
454 	62 	892 
454 	62 	958 
454 	62 	1023 
454 	133 	0 
454 	133 	62 
454 	133 	133 
454 	133 	196 
454 	133 	260 
454 	133 	325 
454 	133 	389 
454 	133 	454 
454 	133 	518 
454 	133 	579 
454 	133 	643 
454 	133 	706 
454 	133 	769 
454 	133 	827 
454 	133 	892 
454 	133 	958 
454 	133 	1023 
454 	196 	0 
454 	196 	62 
454 	196 	133 
454 	196 	196 
454 	196 	260 
454 	196 	325 
454 	196 	389 
454 	196 	454 
454 	196 	518 
454 	196 	579 
454 	196 	643 
454 	196 	706 
454 	196 	769 
454 	196 	827 
454 	196 	892 
454 	196 	958 
454 	196 	1023 
454 	260 	0 
454 	260 	62 
454 	260 	133 
454 	260 	196 
454 	260 	260 
454 	260 	325 
454 	260 	389 
454 	260 	454 
454 	260 	518 
454 	260 	579 
454 	260 	643 
454 	260 	706 
454 	260 	769 
454 	260 	827 
454 	260 	892 
454 	260 	958 
454 	260 	1023 
454 	325 	0 
454 	325 	62 
454 	325 	133 
454 	325 	196 
454 	325 	260 
454 	325 	325 
454 	325 	389 
454 	325 	454 
454 	325 	518 
454 	325 	579 
454 	325 	643 
454 	325 	706 
454 	325 	769 
454 	325 	827 
454 	325 	892 
454 	325 	958 
454 	325 	1023 
454 	389 	0 
454 	389 	62 
454 	389 	133 
454 	389 	196 
454 	389 	260 
454 	389 	325 
454 	389 	389 
454 	389 	454 
454 	389 	518 
454 	389 	579 
454 	389 	643 
454 	389 	706 
454 	389 	769 
454 	389 	827 
454 	389 	892 
454 	389 	958 
454 	389 	1023 
454 	454 	0 
454 	454 	62 
454 	454 	133 
454 	454 	196 
454 	454 	260 
454 	454 	325 
454 	454 	389 
454 	454 	454 
454 	454 	518 
454 	454 	579 
454 	454 	643 
454 	454 	706 
454 	454 	769 
454 	454 	827 
454 	454 	892 
454 	454 	958 
454 	454 	1023 
454 	518 	0 
454 	518 	62 
454 	518 	133 
454 	518 	196 
454 	518 	260 
454 	518 	325 
454 	518 	389 
454 	518 	454 
454 	518 	518 
454 	518 	579 
454 	518 	643 
454 	518 	706 
454 	518 	769 
454 	518 	827 
454 	518 	892 
454 	518 	958 
454 	518 	1023 
454 	579 	0 
454 	579 	62 
454 	579 	133 
454 	579 	196 
454 	579 	260 
454 	579 	325 
454 	579 	389 
454 	579 	454 
454 	579 	518 
454 	579 	579 
454 	579 	643 
454 	579 	706 
454 	579 	769 
454 	579 	827 
454 	579 	892 
454 	579 	958 
454 	579 	1023 
454 	643 	0 
454 	643 	62 
454 	643 	133 
454 	643 	196 
454 	643 	260 
454 	643 	325 
454 	643 	389 
454 	643 	454 
454 	643 	518 
454 	643 	579 
454 	643 	643 
454 	643 	706 
454 	643 	769 
454 	643 	827 
454 	643 	892 
454 	643 	958 
454 	643 	1023 
454 	706 	0 
454 	706 	62 
454 	706 	133 
454 	706 	196 
454 	706 	260 
454 	706 	325 
454 	706 	389 
454 	706 	454 
454 	706 	518 
454 	706 	579 
454 	706 	643 
454 	706 	706 
454 	706 	769 
454 	706 	827 
454 	706 	892 
454 	706 	958 
454 	706 	1023 
454 	769 	0 
454 	769 	62 
454 	769 	133 
454 	769 	196 
454 	769 	260 
454 	769 	325 
454 	769 	389 
454 	769 	454 
454 	769 	518 
454 	769 	579 
454 	769 	643 
454 	769 	706 
454 	769 	769 
454 	769 	827 
454 	769 	892 
454 	769 	958 
454 	769 	1023 
454 	827 	0 
454 	827 	62 
454 	827 	133 
454 	827 	196 
454 	827 	260 
454 	827 	325 
454 	827 	389 
454 	827 	454 
454 	827 	518 
454 	827 	579 
454 	827 	643 
454 	827 	706 
454 	827 	769 
454 	827 	827 
454 	827 	892 
454 	827 	958 
454 	827 	1023 
454 	892 	0 
454 	892 	62 
454 	892 	133 
454 	892 	196 
454 	892 	260 
454 	892 	325 
454 	892 	389 
454 	892 	454 
454 	892 	518 
454 	892 	579 
454 	892 	643 
454 	892 	706 
454 	892 	769 
454 	892 	827 
454 	892 	892 
454 	892 	958 
454 	892 	1023 
454 	958 	0 
454 	958 	62 
454 	958 	133 
454 	958 	196 
454 	958 	260 
454 	958 	325 
454 	958 	389 
454 	958 	454 
454 	958 	518 
454 	958 	579 
454 	958 	643 
454 	958 	706 
454 	958 	769 
454 	958 	827 
454 	958 	892 
454 	958 	958 
454 	958 	1023 
454 	1023 	0 
454 	1023 	62 
454 	1023 	133 
454 	1023 	196 
454 	1023 	260 
454 	1023 	325 
454 	1023 	389 
454 	1023 	454 
454 	1023 	518 
454 	1023 	579 
454 	1023 	643 
454 	1023 	706 
454 	1023 	769 
454 	1023 	827 
454 	1023 	892 
454 	1023 	958 
454 	1023 	1023 
518 	0 	0 
518 	0 	62 
518 	0 	133 
518 	0 	196 
518 	0 	260 
518 	0 	325 
518 	0 	389 
518 	0 	454 
518 	0 	518 
518 	0 	579 
518 	0 	643 
518 	0 	706 
518 	0 	769 
518 	0 	827 
518 	0 	892 
518 	0 	958 
518 	0 	1023 
518 	62 	0 
518 	62 	62 
518 	62 	133 
518 	62 	196 
518 	62 	260 
518 	62 	325 
518 	62 	389 
518 	62 	454 
518 	62 	518 
518 	62 	579 
518 	62 	643 
518 	62 	706 
518 	62 	769 
518 	62 	827 
518 	62 	892 
518 	62 	958 
518 	62 	1023 
518 	133 	0 
518 	133 	62 
518 	133 	133 
518 	133 	196 
518 	133 	260 
518 	133 	325 
518 	133 	389 
518 	133 	454 
518 	133 	518 
518 	133 	579 
518 	133 	643 
518 	133 	706 
518 	133 	769 
518 	133 	827 
518 	133 	892 
518 	133 	958 
518 	133 	1023 
518 	196 	0 
518 	196 	62 
518 	196 	133 
518 	196 	196 
518 	196 	260 
518 	196 	325 
518 	196 	389 
518 	196 	454 
518 	196 	518 
518 	196 	579 
518 	196 	643 
518 	196 	706 
518 	196 	769 
518 	196 	827 
518 	196 	892 
518 	196 	958 
518 	196 	1023 
518 	260 	0 
518 	260 	62 
518 	260 	133 
518 	260 	196 
518 	260 	260 
518 	260 	325 
518 	260 	389 
518 	260 	454 
518 	260 	518 
518 	260 	579 
518 	260 	643 
518 	260 	706 
518 	260 	769 
518 	260 	827 
518 	260 	892 
518 	260 	958 
518 	260 	1023 
518 	325 	0 
518 	325 	62 
518 	325 	133 
518 	325 	196 
518 	325 	260 
518 	325 	325 
518 	325 	389 
518 	325 	454 
518 	325 	518 
518 	325 	579 
518 	325 	643 
518 	325 	706 
518 	325 	769 
518 	325 	827 
518 	325 	892 
518 	325 	958 
518 	325 	1023 
518 	389 	0 
518 	389 	62 
518 	389 	133 
518 	389 	196 
518 	389 	260 
518 	389 	325 
518 	389 	389 
518 	389 	454 
518 	389 	518 
518 	389 	579 
518 	389 	643 
518 	389 	706 
518 	389 	769 
518 	389 	827 
518 	389 	892 
518 	389 	958 
518 	389 	1023 
518 	454 	0 
518 	454 	62 
518 	454 	133 
518 	454 	196 
518 	454 	260 
518 	454 	325 
518 	454 	389 
518 	454 	454 
518 	454 	518 
518 	454 	579 
518 	454 	643 
518 	454 	706 
518 	454 	769 
518 	454 	827 
518 	454 	892 
518 	454 	958 
518 	454 	1023 
518 	518 	0 
518 	518 	62 
518 	518 	133 
518 	518 	196 
518 	518 	260 
518 	518 	325 
518 	518 	389 
518 	518 	454 
518 	518 	518 
518 	518 	579 
518 	518 	643 
518 	518 	706 
518 	518 	769 
518 	518 	827 
518 	518 	892 
518 	518 	958 
518 	518 	1023 
518 	579 	0 
518 	579 	62 
518 	579 	133 
518 	579 	196 
518 	579 	260 
518 	579 	325 
518 	579 	389 
518 	579 	454 
518 	579 	518 
518 	579 	579 
518 	579 	643 
518 	579 	706 
518 	579 	769 
518 	579 	827 
518 	579 	892 
518 	579 	958 
518 	579 	1023 
518 	643 	0 
518 	643 	62 
518 	643 	133 
518 	643 	196 
518 	643 	260 
518 	643 	325 
518 	643 	389 
518 	643 	454 
518 	643 	518 
518 	643 	579 
518 	643 	643 
518 	643 	706 
518 	643 	769 
518 	643 	827 
518 	643 	892 
518 	643 	958 
518 	643 	1023 
518 	706 	0 
518 	706 	62 
518 	706 	133 
518 	706 	196 
518 	706 	260 
518 	706 	325 
518 	706 	389 
518 	706 	454 
518 	706 	518 
518 	706 	579 
518 	706 	643 
518 	706 	706 
518 	706 	769 
518 	706 	827 
518 	706 	892 
518 	706 	958 
518 	706 	1023 
518 	769 	0 
518 	769 	62 
518 	769 	133 
518 	769 	196 
518 	769 	260 
518 	769 	325 
518 	769 	389 
518 	769 	454 
518 	769 	518 
518 	769 	579 
518 	769 	643 
518 	769 	706 
518 	769 	769 
518 	769 	827 
518 	769 	892 
518 	769 	958 
518 	769 	1023 
518 	827 	0 
518 	827 	62 
518 	827 	133 
518 	827 	196 
518 	827 	260 
518 	827 	325 
518 	827 	389 
518 	827 	454 
518 	827 	518 
518 	827 	579 
518 	827 	643 
518 	827 	706 
518 	827 	769 
518 	827 	827 
518 	827 	892 
518 	827 	958 
518 	827 	1023 
518 	892 	0 
518 	892 	62 
518 	892 	133 
518 	892 	196 
518 	892 	260 
518 	892 	325 
518 	892 	389 
518 	892 	454 
518 	892 	518 
518 	892 	579 
518 	892 	643 
518 	892 	706 
518 	892 	769 
518 	892 	827 
518 	892 	892 
518 	892 	958 
518 	892 	1023 
518 	958 	0 
518 	958 	62 
518 	958 	133 
518 	958 	196 
518 	958 	260 
518 	958 	325 
518 	958 	389 
518 	958 	454 
518 	958 	518 
518 	958 	579 
518 	958 	643 
518 	958 	706 
518 	958 	769 
518 	958 	827 
518 	958 	892 
518 	958 	958 
518 	958 	1023 
518 	1023 	0 
518 	1023 	62 
518 	1023 	133 
518 	1023 	196 
518 	1023 	260 
518 	1023 	325 
518 	1023 	389 
518 	1023 	454 
518 	1023 	518 
518 	1023 	579 
518 	1023 	643 
518 	1023 	706 
518 	1023 	769 
518 	1023 	827 
518 	1023 	892 
518 	1023 	958 
518 	1023 	1023 
579 	0 	0 
579 	0 	62 
579 	0 	133 
579 	0 	196 
579 	0 	260 
579 	0 	325 
579 	0 	389 
579 	0 	454 
579 	0 	518 
579 	0 	579 
579 	0 	643 
579 	0 	706 
579 	0 	769 
579 	0 	827 
579 	0 	892 
579 	0 	958 
579 	0 	1023 
579 	62 	0 
579 	62 	62 
579 	62 	133 
579 	62 	196 
579 	62 	260 
579 	62 	325 
579 	62 	389 
579 	62 	454 
579 	62 	518 
579 	62 	579 
579 	62 	643 
579 	62 	706 
579 	62 	769 
579 	62 	827 
579 	62 	892 
579 	62 	958 
579 	62 	1023 
579 	133 	0 
579 	133 	62 
579 	133 	133 
579 	133 	196 
579 	133 	260 
579 	133 	325 
579 	133 	389 
579 	133 	454 
579 	133 	518 
579 	133 	579 
579 	133 	643 
579 	133 	706 
579 	133 	769 
579 	133 	827 
579 	133 	892 
579 	133 	958 
579 	133 	1023 
579 	196 	0 
579 	196 	62 
579 	196 	133 
579 	196 	196 
579 	196 	260 
579 	196 	325 
579 	196 	389 
579 	196 	454 
579 	196 	518 
579 	196 	579 
579 	196 	643 
579 	196 	706 
579 	196 	769 
579 	196 	827 
579 	196 	892 
579 	196 	958 
579 	196 	1023 
579 	260 	0 
579 	260 	62 
579 	260 	133 
579 	260 	196 
579 	260 	260 
579 	260 	325 
579 	260 	389 
579 	260 	454 
579 	260 	518 
579 	260 	579 
579 	260 	643 
579 	260 	706 
579 	260 	769 
579 	260 	827 
579 	260 	892 
579 	260 	958 
579 	260 	1023 
579 	325 	0 
579 	325 	62 
579 	325 	133 
579 	325 	196 
579 	325 	260 
579 	325 	325 
579 	325 	389 
579 	325 	454 
579 	325 	518 
579 	325 	579 
579 	325 	643 
579 	325 	706 
579 	325 	769 
579 	325 	827 
579 	325 	892 
579 	325 	958 
579 	325 	1023 
579 	389 	0 
579 	389 	62 
579 	389 	133 
579 	389 	196 
579 	389 	260 
579 	389 	325 
579 	389 	389 
579 	389 	454 
579 	389 	518 
579 	389 	579 
579 	389 	643 
579 	389 	706 
579 	389 	769 
579 	389 	827 
579 	389 	892 
579 	389 	958 
579 	389 	1023 
579 	454 	0 
579 	454 	62 
579 	454 	133 
579 	454 	196 
579 	454 	260 
579 	454 	325 
579 	454 	389 
579 	454 	454 
579 	454 	518 
579 	454 	579 
579 	454 	643 
579 	454 	706 
579 	454 	769 
579 	454 	827 
579 	454 	892 
579 	454 	958 
579 	454 	1023 
579 	518 	0 
579 	518 	62 
579 	518 	133 
579 	518 	196 
579 	518 	260 
579 	518 	325 
579 	518 	389 
579 	518 	454 
579 	518 	518 
579 	518 	579 
579 	518 	643 
579 	518 	706 
579 	518 	769 
579 	518 	827 
579 	518 	892 
579 	518 	958 
579 	518 	1023 
579 	579 	0 
579 	579 	62 
579 	579 	133 
579 	579 	196 
579 	579 	260 
579 	579 	325 
579 	579 	389 
579 	579 	454 
579 	579 	518 
579 	579 	579 
579 	579 	643 
579 	579 	706 
579 	579 	769 
579 	579 	827 
579 	579 	892 
579 	579 	958 
579 	579 	1023 
579 	643 	0 
579 	643 	62 
579 	643 	133 
579 	643 	196 
579 	643 	260 
579 	643 	325 
579 	643 	389 
579 	643 	454 
579 	643 	518 
579 	643 	579 
579 	643 	643 
579 	643 	706 
579 	643 	769 
579 	643 	827 
579 	643 	892 
579 	643 	958 
579 	643 	1023 
579 	706 	0 
579 	706 	62 
579 	706 	133 
579 	706 	196 
579 	706 	260 
579 	706 	325 
579 	706 	389 
579 	706 	454 
579 	706 	518 
579 	706 	579 
579 	706 	643 
579 	706 	706 
579 	706 	769 
579 	706 	827 
579 	706 	892 
579 	706 	958 
579 	706 	1023 
579 	769 	0 
579 	769 	62 
579 	769 	133 
579 	769 	196 
579 	769 	260 
579 	769 	325 
579 	769 	389 
579 	769 	454 
579 	769 	518 
579 	769 	579 
579 	769 	643 
579 	769 	706 
579 	769 	769 
579 	769 	827 
579 	769 	892 
579 	769 	958 
579 	769 	1023 
579 	827 	0 
579 	827 	62 
579 	827 	133 
579 	827 	196 
579 	827 	260 
579 	827 	325 
579 	827 	389 
579 	827 	454 
579 	827 	518 
579 	827 	579 
579 	827 	643 
579 	827 	706 
579 	827 	769 
579 	827 	827 
579 	827 	892 
579 	827 	958 
579 	827 	1023 
579 	892 	0 
579 	892 	62 
579 	892 	133 
579 	892 	196 
579 	892 	260 
579 	892 	325 
579 	892 	389 
579 	892 	454 
579 	892 	518 
579 	892 	579 
579 	892 	643 
579 	892 	706 
579 	892 	769 
579 	892 	827 
579 	892 	892 
579 	892 	958 
579 	892 	1023 
579 	958 	0 
579 	958 	62 
579 	958 	133 
579 	958 	196 
579 	958 	260 
579 	958 	325 
579 	958 	389 
579 	958 	454 
579 	958 	518 
579 	958 	579 
579 	958 	643 
579 	958 	706 
579 	958 	769 
579 	958 	827 
579 	958 	892 
579 	958 	958 
579 	958 	1023 
579 	1023 	0 
579 	1023 	62 
579 	1023 	133 
579 	1023 	196 
579 	1023 	260 
579 	1023 	325 
579 	1023 	389 
579 	1023 	454 
579 	1023 	518 
579 	1023 	579 
579 	1023 	643 
579 	1023 	706 
579 	1023 	769 
579 	1023 	827 
579 	1023 	892 
579 	1023 	958 
579 	1023 	1023 
643 	0 	0 
643 	0 	62 
643 	0 	133 
643 	0 	196 
643 	0 	260 
643 	0 	325 
643 	0 	389 
643 	0 	454 
643 	0 	518 
643 	0 	579 
643 	0 	643 
643 	0 	706 
643 	0 	769 
643 	0 	827 
643 	0 	892 
643 	0 	958 
643 	0 	1023 
643 	62 	0 
643 	62 	62 
643 	62 	133 
643 	62 	196 
643 	62 	260 
643 	62 	325 
643 	62 	389 
643 	62 	454 
643 	62 	518 
643 	62 	579 
643 	62 	643 
643 	62 	706 
643 	62 	769 
643 	62 	827 
643 	62 	892 
643 	62 	958 
643 	62 	1023 
643 	133 	0 
643 	133 	62 
643 	133 	133 
643 	133 	196 
643 	133 	260 
643 	133 	325 
643 	133 	389 
643 	133 	454 
643 	133 	518 
643 	133 	579 
643 	133 	643 
643 	133 	706 
643 	133 	769 
643 	133 	827 
643 	133 	892 
643 	133 	958 
643 	133 	1023 
643 	196 	0 
643 	196 	62 
643 	196 	133 
643 	196 	196 
643 	196 	260 
643 	196 	325 
643 	196 	389 
643 	196 	454 
643 	196 	518 
643 	196 	579 
643 	196 	643 
643 	196 	706 
643 	196 	769 
643 	196 	827 
643 	196 	892 
643 	196 	958 
643 	196 	1023 
643 	260 	0 
643 	260 	62 
643 	260 	133 
643 	260 	196 
643 	260 	260 
643 	260 	325 
643 	260 	389 
643 	260 	454 
643 	260 	518 
643 	260 	579 
643 	260 	643 
643 	260 	706 
643 	260 	769 
643 	260 	827 
643 	260 	892 
643 	260 	958 
643 	260 	1023 
643 	325 	0 
643 	325 	62 
643 	325 	133 
643 	325 	196 
643 	325 	260 
643 	325 	325 
643 	325 	389 
643 	325 	454 
643 	325 	518 
643 	325 	579 
643 	325 	643 
643 	325 	706 
643 	325 	769 
643 	325 	827 
643 	325 	892 
643 	325 	958 
643 	325 	1023 
643 	389 	0 
643 	389 	62 
643 	389 	133 
643 	389 	196 
643 	389 	260 
643 	389 	325 
643 	389 	389 
643 	389 	454 
643 	389 	518 
643 	389 	579 
643 	389 	643 
643 	389 	706 
643 	389 	769 
643 	389 	827 
643 	389 	892 
643 	389 	958 
643 	389 	1023 
643 	454 	0 
643 	454 	62 
643 	454 	133 
643 	454 	196 
643 	454 	260 
643 	454 	325 
643 	454 	389 
643 	454 	454 
643 	454 	518 
643 	454 	579 
643 	454 	643 
643 	454 	706 
643 	454 	769 
643 	454 	827 
643 	454 	892 
643 	454 	958 
643 	454 	1023 
643 	518 	0 
643 	518 	62 
643 	518 	133 
643 	518 	196 
643 	518 	260 
643 	518 	325 
643 	518 	389 
643 	518 	454 
643 	518 	518 
643 	518 	579 
643 	518 	643 
643 	518 	706 
643 	518 	769 
643 	518 	827 
643 	518 	892 
643 	518 	958 
643 	518 	1023 
643 	579 	0 
643 	579 	62 
643 	579 	133 
643 	579 	196 
643 	579 	260 
643 	579 	325 
643 	579 	389 
643 	579 	454 
643 	579 	518 
643 	579 	579 
643 	579 	643 
643 	579 	706 
643 	579 	769 
643 	579 	827 
643 	579 	892 
643 	579 	958 
643 	579 	1023 
643 	643 	0 
643 	643 	62 
643 	643 	133 
643 	643 	196 
643 	643 	260 
643 	643 	325 
643 	643 	389 
643 	643 	454 
643 	643 	518 
643 	643 	579 
643 	643 	643 
643 	643 	706 
643 	643 	769 
643 	643 	827 
643 	643 	892 
643 	643 	958 
643 	643 	1023 
643 	706 	0 
643 	706 	62 
643 	706 	133 
643 	706 	196 
643 	706 	260 
643 	706 	325 
643 	706 	389 
643 	706 	454 
643 	706 	518 
643 	706 	579 
643 	706 	643 
643 	706 	706 
643 	706 	769 
643 	706 	827 
643 	706 	892 
643 	706 	958 
643 	706 	1023 
643 	769 	0 
643 	769 	62 
643 	769 	133 
643 	769 	196 
643 	769 	260 
643 	769 	325 
643 	769 	389 
643 	769 	454 
643 	769 	518 
643 	769 	579 
643 	769 	643 
643 	769 	706 
643 	769 	769 
643 	769 	827 
643 	769 	892 
643 	769 	958 
643 	769 	1023 
643 	827 	0 
643 	827 	62 
643 	827 	133 
643 	827 	196 
643 	827 	260 
643 	827 	325 
643 	827 	389 
643 	827 	454 
643 	827 	518 
643 	827 	579 
643 	827 	643 
643 	827 	706 
643 	827 	769 
643 	827 	827 
643 	827 	892 
643 	827 	958 
643 	827 	1023 
643 	892 	0 
643 	892 	62 
643 	892 	133 
643 	892 	196 
643 	892 	260 
643 	892 	325 
643 	892 	389 
643 	892 	454 
643 	892 	518 
643 	892 	579 
643 	892 	643 
643 	892 	706 
643 	892 	769 
643 	892 	827 
643 	892 	892 
643 	892 	958 
643 	892 	1023 
643 	958 	0 
643 	958 	62 
643 	958 	133 
643 	958 	196 
643 	958 	260 
643 	958 	325 
643 	958 	389 
643 	958 	454 
643 	958 	518 
643 	958 	579 
643 	958 	643 
643 	958 	706 
643 	958 	769 
643 	958 	827 
643 	958 	892 
643 	958 	958 
643 	958 	1023 
643 	1023 	0 
643 	1023 	62 
643 	1023 	133 
643 	1023 	196 
643 	1023 	260 
643 	1023 	325 
643 	1023 	389 
643 	1023 	454 
643 	1023 	518 
643 	1023 	579 
643 	1023 	643 
643 	1023 	706 
643 	1023 	769 
643 	1023 	827 
643 	1023 	892 
643 	1023 	958 
643 	1023 	1023 
706 	0 	0 
706 	0 	62 
706 	0 	133 
706 	0 	196 
706 	0 	260 
706 	0 	325 
706 	0 	389 
706 	0 	454 
706 	0 	518 
706 	0 	579 
706 	0 	643 
706 	0 	706 
706 	0 	769 
706 	0 	827 
706 	0 	892 
706 	0 	958 
706 	0 	1023 
706 	62 	0 
706 	62 	62 
706 	62 	133 
706 	62 	196 
706 	62 	260 
706 	62 	325 
706 	62 	389 
706 	62 	454 
706 	62 	518 
706 	62 	579 
706 	62 	643 
706 	62 	706 
706 	62 	769 
706 	62 	827 
706 	62 	892 
706 	62 	958 
706 	62 	1023 
706 	133 	0 
706 	133 	62 
706 	133 	133 
706 	133 	196 
706 	133 	260 
706 	133 	325 
706 	133 	389 
706 	133 	454 
706 	133 	518 
706 	133 	579 
706 	133 	643 
706 	133 	706 
706 	133 	769 
706 	133 	827 
706 	133 	892 
706 	133 	958 
706 	133 	1023 
706 	196 	0 
706 	196 	62 
706 	196 	133 
706 	196 	196 
706 	196 	260 
706 	196 	325 
706 	196 	389 
706 	196 	454 
706 	196 	518 
706 	196 	579 
706 	196 	643 
706 	196 	706 
706 	196 	769 
706 	196 	827 
706 	196 	892 
706 	196 	958 
706 	196 	1023 
706 	260 	0 
706 	260 	62 
706 	260 	133 
706 	260 	196 
706 	260 	260 
706 	260 	325 
706 	260 	389 
706 	260 	454 
706 	260 	518 
706 	260 	579 
706 	260 	643 
706 	260 	706 
706 	260 	769 
706 	260 	827 
706 	260 	892 
706 	260 	958 
706 	260 	1023 
706 	325 	0 
706 	325 	62 
706 	325 	133 
706 	325 	196 
706 	325 	260 
706 	325 	325 
706 	325 	389 
706 	325 	454 
706 	325 	518 
706 	325 	579 
706 	325 	643 
706 	325 	706 
706 	325 	769 
706 	325 	827 
706 	325 	892 
706 	325 	958 
706 	325 	1023 
706 	389 	0 
706 	389 	62 
706 	389 	133 
706 	389 	196 
706 	389 	260 
706 	389 	325 
706 	389 	389 
706 	389 	454 
706 	389 	518 
706 	389 	579 
706 	389 	643 
706 	389 	706 
706 	389 	769 
706 	389 	827 
706 	389 	892 
706 	389 	958 
706 	389 	1023 
706 	454 	0 
706 	454 	62 
706 	454 	133 
706 	454 	196 
706 	454 	260 
706 	454 	325 
706 	454 	389 
706 	454 	454 
706 	454 	518 
706 	454 	579 
706 	454 	643 
706 	454 	706 
706 	454 	769 
706 	454 	827 
706 	454 	892 
706 	454 	958 
706 	454 	1023 
706 	518 	0 
706 	518 	62 
706 	518 	133 
706 	518 	196 
706 	518 	260 
706 	518 	325 
706 	518 	389 
706 	518 	454 
706 	518 	518 
706 	518 	579 
706 	518 	643 
706 	518 	706 
706 	518 	769 
706 	518 	827 
706 	518 	892 
706 	518 	958 
706 	518 	1023 
706 	579 	0 
706 	579 	62 
706 	579 	133 
706 	579 	196 
706 	579 	260 
706 	579 	325 
706 	579 	389 
706 	579 	454 
706 	579 	518 
706 	579 	579 
706 	579 	643 
706 	579 	706 
706 	579 	769 
706 	579 	827 
706 	579 	892 
706 	579 	958 
706 	579 	1023 
706 	643 	0 
706 	643 	62 
706 	643 	133 
706 	643 	196 
706 	643 	260 
706 	643 	325 
706 	643 	389 
706 	643 	454 
706 	643 	518 
706 	643 	579 
706 	643 	643 
706 	643 	706 
706 	643 	769 
706 	643 	827 
706 	643 	892 
706 	643 	958 
706 	643 	1023 
706 	706 	0 
706 	706 	62 
706 	706 	133 
706 	706 	196 
706 	706 	260 
706 	706 	325 
706 	706 	389 
706 	706 	454 
706 	706 	518 
706 	706 	579 
706 	706 	643 
706 	706 	706 
706 	706 	769 
706 	706 	827 
706 	706 	892 
706 	706 	958 
706 	706 	1023 
706 	769 	0 
706 	769 	62 
706 	769 	133 
706 	769 	196 
706 	769 	260 
706 	769 	325 
706 	769 	389 
706 	769 	454 
706 	769 	518 
706 	769 	579 
706 	769 	643 
706 	769 	706 
706 	769 	769 
706 	769 	827 
706 	769 	892 
706 	769 	958 
706 	769 	1023 
706 	827 	0 
706 	827 	62 
706 	827 	133 
706 	827 	196 
706 	827 	260 
706 	827 	325 
706 	827 	389 
706 	827 	454 
706 	827 	518 
706 	827 	579 
706 	827 	643 
706 	827 	706 
706 	827 	769 
706 	827 	827 
706 	827 	892 
706 	827 	958 
706 	827 	1023 
706 	892 	0 
706 	892 	62 
706 	892 	133 
706 	892 	196 
706 	892 	260 
706 	892 	325 
706 	892 	389 
706 	892 	454 
706 	892 	518 
706 	892 	579 
706 	892 	643 
706 	892 	706 
706 	892 	769 
706 	892 	827 
706 	892 	892 
706 	892 	958 
706 	892 	1023 
706 	958 	0 
706 	958 	62 
706 	958 	133 
706 	958 	196 
706 	958 	260 
706 	958 	325 
706 	958 	389 
706 	958 	454 
706 	958 	518 
706 	958 	579 
706 	958 	643 
706 	958 	706 
706 	958 	769 
706 	958 	827 
706 	958 	892 
706 	958 	958 
706 	958 	1023 
706 	1023 	0 
706 	1023 	62 
706 	1023 	133 
706 	1023 	196 
706 	1023 	260 
706 	1023 	325 
706 	1023 	389 
706 	1023 	454 
706 	1023 	518 
706 	1023 	579 
706 	1023 	643 
706 	1023 	706 
706 	1023 	769 
706 	1023 	827 
706 	1023 	892 
706 	1023 	958 
706 	1023 	1023 
769 	0 	0 
769 	0 	62 
769 	0 	133 
769 	0 	196 
769 	0 	260 
769 	0 	325 
769 	0 	389 
769 	0 	454 
769 	0 	518 
769 	0 	579 
769 	0 	643 
769 	0 	706 
769 	0 	769 
769 	0 	827 
769 	0 	892 
769 	0 	958 
769 	0 	1023 
769 	62 	0 
769 	62 	62 
769 	62 	133 
769 	62 	196 
769 	62 	260 
769 	62 	325 
769 	62 	389 
769 	62 	454 
769 	62 	518 
769 	62 	579 
769 	62 	643 
769 	62 	706 
769 	62 	769 
769 	62 	827 
769 	62 	892 
769 	62 	958 
769 	62 	1023 
769 	133 	0 
769 	133 	62 
769 	133 	133 
769 	133 	196 
769 	133 	260 
769 	133 	325 
769 	133 	389 
769 	133 	454 
769 	133 	518 
769 	133 	579 
769 	133 	643 
769 	133 	706 
769 	133 	769 
769 	133 	827 
769 	133 	892 
769 	133 	958 
769 	133 	1023 
769 	196 	0 
769 	196 	62 
769 	196 	133 
769 	196 	196 
769 	196 	260 
769 	196 	325 
769 	196 	389 
769 	196 	454 
769 	196 	518 
769 	196 	579 
769 	196 	643 
769 	196 	706 
769 	196 	769 
769 	196 	827 
769 	196 	892 
769 	196 	958 
769 	196 	1023 
769 	260 	0 
769 	260 	62 
769 	260 	133 
769 	260 	196 
769 	260 	260 
769 	260 	325 
769 	260 	389 
769 	260 	454 
769 	260 	518 
769 	260 	579 
769 	260 	643 
769 	260 	706 
769 	260 	769 
769 	260 	827 
769 	260 	892 
769 	260 	958 
769 	260 	1023 
769 	325 	0 
769 	325 	62 
769 	325 	133 
769 	325 	196 
769 	325 	260 
769 	325 	325 
769 	325 	389 
769 	325 	454 
769 	325 	518 
769 	325 	579 
769 	325 	643 
769 	325 	706 
769 	325 	769 
769 	325 	827 
769 	325 	892 
769 	325 	958 
769 	325 	1023 
769 	389 	0 
769 	389 	62 
769 	389 	133 
769 	389 	196 
769 	389 	260 
769 	389 	325 
769 	389 	389 
769 	389 	454 
769 	389 	518 
769 	389 	579 
769 	389 	643 
769 	389 	706 
769 	389 	769 
769 	389 	827 
769 	389 	892 
769 	389 	958 
769 	389 	1023 
769 	454 	0 
769 	454 	62 
769 	454 	133 
769 	454 	196 
769 	454 	260 
769 	454 	325 
769 	454 	389 
769 	454 	454 
769 	454 	518 
769 	454 	579 
769 	454 	643 
769 	454 	706 
769 	454 	769 
769 	454 	827 
769 	454 	892 
769 	454 	958 
769 	454 	1023 
769 	518 	0 
769 	518 	62 
769 	518 	133 
769 	518 	196 
769 	518 	260 
769 	518 	325 
769 	518 	389 
769 	518 	454 
769 	518 	518 
769 	518 	579 
769 	518 	643 
769 	518 	706 
769 	518 	769 
769 	518 	827 
769 	518 	892 
769 	518 	958 
769 	518 	1023 
769 	579 	0 
769 	579 	62 
769 	579 	133 
769 	579 	196 
769 	579 	260 
769 	579 	325 
769 	579 	389 
769 	579 	454 
769 	579 	518 
769 	579 	579 
769 	579 	643 
769 	579 	706 
769 	579 	769 
769 	579 	827 
769 	579 	892 
769 	579 	958 
769 	579 	1023 
769 	643 	0 
769 	643 	62 
769 	643 	133 
769 	643 	196 
769 	643 	260 
769 	643 	325 
769 	643 	389 
769 	643 	454 
769 	643 	518 
769 	643 	579 
769 	643 	643 
769 	643 	706 
769 	643 	769 
769 	643 	827 
769 	643 	892 
769 	643 	958 
769 	643 	1023 
769 	706 	0 
769 	706 	62 
769 	706 	133 
769 	706 	196 
769 	706 	260 
769 	706 	325 
769 	706 	389 
769 	706 	454 
769 	706 	518 
769 	706 	579 
769 	706 	643 
769 	706 	706 
769 	706 	769 
769 	706 	827 
769 	706 	892 
769 	706 	958 
769 	706 	1023 
769 	769 	0 
769 	769 	62 
769 	769 	133 
769 	769 	196 
769 	769 	260 
769 	769 	325 
769 	769 	389 
769 	769 	454 
769 	769 	518 
769 	769 	579 
769 	769 	643 
769 	769 	706 
769 	769 	769 
769 	769 	827 
769 	769 	892 
769 	769 	958 
769 	769 	1023 
769 	827 	0 
769 	827 	62 
769 	827 	133 
769 	827 	196 
769 	827 	260 
769 	827 	325 
769 	827 	389 
769 	827 	454 
769 	827 	518 
769 	827 	579 
769 	827 	643 
769 	827 	706 
769 	827 	769 
769 	827 	827 
769 	827 	892 
769 	827 	958 
769 	827 	1023 
769 	892 	0 
769 	892 	62 
769 	892 	133 
769 	892 	196 
769 	892 	260 
769 	892 	325 
769 	892 	389 
769 	892 	454 
769 	892 	518 
769 	892 	579 
769 	892 	643 
769 	892 	706 
769 	892 	769 
769 	892 	827 
769 	892 	892 
769 	892 	958 
769 	892 	1023 
769 	958 	0 
769 	958 	62 
769 	958 	133 
769 	958 	196 
769 	958 	260 
769 	958 	325 
769 	958 	389 
769 	958 	454 
769 	958 	518 
769 	958 	579 
769 	958 	643 
769 	958 	706 
769 	958 	769 
769 	958 	827 
769 	958 	892 
769 	958 	958 
769 	958 	1023 
769 	1023 	0 
769 	1023 	62 
769 	1023 	133 
769 	1023 	196 
769 	1023 	260 
769 	1023 	325 
769 	1023 	389 
769 	1023 	454 
769 	1023 	518 
769 	1023 	579 
769 	1023 	643 
769 	1023 	706 
769 	1023 	769 
769 	1023 	827 
769 	1023 	892 
769 	1023 	958 
769 	1023 	1023 
827 	0 	0 
827 	0 	62 
827 	0 	133 
827 	0 	196 
827 	0 	260 
827 	0 	325 
827 	0 	389 
827 	0 	454 
827 	0 	518 
827 	0 	579 
827 	0 	643 
827 	0 	706 
827 	0 	769 
827 	0 	827 
827 	0 	892 
827 	0 	958 
827 	0 	1023 
827 	62 	0 
827 	62 	62 
827 	62 	133 
827 	62 	196 
827 	62 	260 
827 	62 	325 
827 	62 	389 
827 	62 	454 
827 	62 	518 
827 	62 	579 
827 	62 	643 
827 	62 	706 
827 	62 	769 
827 	62 	827 
827 	62 	892 
827 	62 	958 
827 	62 	1023 
827 	133 	0 
827 	133 	62 
827 	133 	133 
827 	133 	196 
827 	133 	260 
827 	133 	325 
827 	133 	389 
827 	133 	454 
827 	133 	518 
827 	133 	579 
827 	133 	643 
827 	133 	706 
827 	133 	769 
827 	133 	827 
827 	133 	892 
827 	133 	958 
827 	133 	1023 
827 	196 	0 
827 	196 	62 
827 	196 	133 
827 	196 	196 
827 	196 	260 
827 	196 	325 
827 	196 	389 
827 	196 	454 
827 	196 	518 
827 	196 	579 
827 	196 	643 
827 	196 	706 
827 	196 	769 
827 	196 	827 
827 	196 	892 
827 	196 	958 
827 	196 	1023 
827 	260 	0 
827 	260 	62 
827 	260 	133 
827 	260 	196 
827 	260 	260 
827 	260 	325 
827 	260 	389 
827 	260 	454 
827 	260 	518 
827 	260 	579 
827 	260 	643 
827 	260 	706 
827 	260 	769 
827 	260 	827 
827 	260 	892 
827 	260 	958 
827 	260 	1023 
827 	325 	0 
827 	325 	62 
827 	325 	133 
827 	325 	196 
827 	325 	260 
827 	325 	325 
827 	325 	389 
827 	325 	454 
827 	325 	518 
827 	325 	579 
827 	325 	643 
827 	325 	706 
827 	325 	769 
827 	325 	827 
827 	325 	892 
827 	325 	958 
827 	325 	1023 
827 	389 	0 
827 	389 	62 
827 	389 	133 
827 	389 	196 
827 	389 	260 
827 	389 	325 
827 	389 	389 
827 	389 	454 
827 	389 	518 
827 	389 	579 
827 	389 	643 
827 	389 	706 
827 	389 	769 
827 	389 	827 
827 	389 	892 
827 	389 	958 
827 	389 	1023 
827 	454 	0 
827 	454 	62 
827 	454 	133 
827 	454 	196 
827 	454 	260 
827 	454 	325 
827 	454 	389 
827 	454 	454 
827 	454 	518 
827 	454 	579 
827 	454 	643 
827 	454 	706 
827 	454 	769 
827 	454 	827 
827 	454 	892 
827 	454 	958 
827 	454 	1023 
827 	518 	0 
827 	518 	62 
827 	518 	133 
827 	518 	196 
827 	518 	260 
827 	518 	325 
827 	518 	389 
827 	518 	454 
827 	518 	518 
827 	518 	579 
827 	518 	643 
827 	518 	706 
827 	518 	769 
827 	518 	827 
827 	518 	892 
827 	518 	958 
827 	518 	1023 
827 	579 	0 
827 	579 	62 
827 	579 	133 
827 	579 	196 
827 	579 	260 
827 	579 	325 
827 	579 	389 
827 	579 	454 
827 	579 	518 
827 	579 	579 
827 	579 	643 
827 	579 	706 
827 	579 	769 
827 	579 	827 
827 	579 	892 
827 	579 	958 
827 	579 	1023 
827 	643 	0 
827 	643 	62 
827 	643 	133 
827 	643 	196 
827 	643 	260 
827 	643 	325 
827 	643 	389 
827 	643 	454 
827 	643 	518 
827 	643 	579 
827 	643 	643 
827 	643 	706 
827 	643 	769 
827 	643 	827 
827 	643 	892 
827 	643 	958 
827 	643 	1023 
827 	706 	0 
827 	706 	62 
827 	706 	133 
827 	706 	196 
827 	706 	260 
827 	706 	325 
827 	706 	389 
827 	706 	454 
827 	706 	518 
827 	706 	579 
827 	706 	643 
827 	706 	706 
827 	706 	769 
827 	706 	827 
827 	706 	892 
827 	706 	958 
827 	706 	1023 
827 	769 	0 
827 	769 	62 
827 	769 	133 
827 	769 	196 
827 	769 	260 
827 	769 	325 
827 	769 	389 
827 	769 	454 
827 	769 	518 
827 	769 	579 
827 	769 	643 
827 	769 	706 
827 	769 	769 
827 	769 	827 
827 	769 	892 
827 	769 	958 
827 	769 	1023 
827 	827 	0 
827 	827 	62 
827 	827 	133 
827 	827 	196 
827 	827 	260 
827 	827 	325 
827 	827 	389 
827 	827 	454 
827 	827 	518 
827 	827 	579 
827 	827 	643 
827 	827 	706 
827 	827 	769 
827 	827 	827 
827 	827 	892 
827 	827 	958 
827 	827 	1023 
827 	892 	0 
827 	892 	62 
827 	892 	133 
827 	892 	196 
827 	892 	260 
827 	892 	325 
827 	892 	389 
827 	892 	454 
827 	892 	518 
827 	892 	579 
827 	892 	643 
827 	892 	706 
827 	892 	769 
827 	892 	827 
827 	892 	892 
827 	892 	958 
827 	892 	1023 
827 	958 	0 
827 	958 	62 
827 	958 	133 
827 	958 	196 
827 	958 	260 
827 	958 	325 
827 	958 	389 
827 	958 	454 
827 	958 	518 
827 	958 	579 
827 	958 	643 
827 	958 	706 
827 	958 	769 
827 	958 	827 
827 	958 	892 
827 	958 	958 
827 	958 	1023 
827 	1023 	0 
827 	1023 	62 
827 	1023 	133 
827 	1023 	196 
827 	1023 	260 
827 	1023 	325 
827 	1023 	389 
827 	1023 	454 
827 	1023 	518 
827 	1023 	579 
827 	1023 	643 
827 	1023 	706 
827 	1023 	769 
827 	1023 	827 
827 	1023 	892 
827 	1023 	958 
827 	1023 	1023 
892 	0 	0 
892 	0 	62 
892 	0 	133 
892 	0 	196 
892 	0 	260 
892 	0 	325 
892 	0 	389 
892 	0 	454 
892 	0 	518 
892 	0 	579 
892 	0 	643 
892 	0 	706 
892 	0 	769 
892 	0 	827 
892 	0 	892 
892 	0 	958 
892 	0 	1023 
892 	62 	0 
892 	62 	62 
892 	62 	133 
892 	62 	196 
892 	62 	260 
892 	62 	325 
892 	62 	389 
892 	62 	454 
892 	62 	518 
892 	62 	579 
892 	62 	643 
892 	62 	706 
892 	62 	769 
892 	62 	827 
892 	62 	892 
892 	62 	958 
892 	62 	1023 
892 	133 	0 
892 	133 	62 
892 	133 	133 
892 	133 	196 
892 	133 	260 
892 	133 	325 
892 	133 	389 
892 	133 	454 
892 	133 	518 
892 	133 	579 
892 	133 	643 
892 	133 	706 
892 	133 	769 
892 	133 	827 
892 	133 	892 
892 	133 	958 
892 	133 	1023 
892 	196 	0 
892 	196 	62 
892 	196 	133 
892 	196 	196 
892 	196 	260 
892 	196 	325 
892 	196 	389 
892 	196 	454 
892 	196 	518 
892 	196 	579 
892 	196 	643 
892 	196 	706 
892 	196 	769 
892 	196 	827 
892 	196 	892 
892 	196 	958 
892 	196 	1023 
892 	260 	0 
892 	260 	62 
892 	260 	133 
892 	260 	196 
892 	260 	260 
892 	260 	325 
892 	260 	389 
892 	260 	454 
892 	260 	518 
892 	260 	579 
892 	260 	643 
892 	260 	706 
892 	260 	769 
892 	260 	827 
892 	260 	892 
892 	260 	958 
892 	260 	1023 
892 	325 	0 
892 	325 	62 
892 	325 	133 
892 	325 	196 
892 	325 	260 
892 	325 	325 
892 	325 	389 
892 	325 	454 
892 	325 	518 
892 	325 	579 
892 	325 	643 
892 	325 	706 
892 	325 	769 
892 	325 	827 
892 	325 	892 
892 	325 	958 
892 	325 	1023 
892 	389 	0 
892 	389 	62 
892 	389 	133 
892 	389 	196 
892 	389 	260 
892 	389 	325 
892 	389 	389 
892 	389 	454 
892 	389 	518 
892 	389 	579 
892 	389 	643 
892 	389 	706 
892 	389 	769 
892 	389 	827 
892 	389 	892 
892 	389 	958 
892 	389 	1023 
892 	454 	0 
892 	454 	62 
892 	454 	133 
892 	454 	196 
892 	454 	260 
892 	454 	325 
892 	454 	389 
892 	454 	454 
892 	454 	518 
892 	454 	579 
892 	454 	643 
892 	454 	706 
892 	454 	769 
892 	454 	827 
892 	454 	892 
892 	454 	958 
892 	454 	1023 
892 	518 	0 
892 	518 	62 
892 	518 	133 
892 	518 	196 
892 	518 	260 
892 	518 	325 
892 	518 	389 
892 	518 	454 
892 	518 	518 
892 	518 	579 
892 	518 	643 
892 	518 	706 
892 	518 	769 
892 	518 	827 
892 	518 	892 
892 	518 	958 
892 	518 	1023 
892 	579 	0 
892 	579 	62 
892 	579 	133 
892 	579 	196 
892 	579 	260 
892 	579 	325 
892 	579 	389 
892 	579 	454 
892 	579 	518 
892 	579 	579 
892 	579 	643 
892 	579 	706 
892 	579 	769 
892 	579 	827 
892 	579 	892 
892 	579 	958 
892 	579 	1023 
892 	643 	0 
892 	643 	62 
892 	643 	133 
892 	643 	196 
892 	643 	260 
892 	643 	325 
892 	643 	389 
892 	643 	454 
892 	643 	518 
892 	643 	579 
892 	643 	643 
892 	643 	706 
892 	643 	769 
892 	643 	827 
892 	643 	892 
892 	643 	958 
892 	643 	1023 
892 	706 	0 
892 	706 	62 
892 	706 	133 
892 	706 	196 
892 	706 	260 
892 	706 	325 
892 	706 	389 
892 	706 	454 
892 	706 	518 
892 	706 	579 
892 	706 	643 
892 	706 	706 
892 	706 	769 
892 	706 	827 
892 	706 	892 
892 	706 	958 
892 	706 	1023 
892 	769 	0 
892 	769 	62 
892 	769 	133 
892 	769 	196 
892 	769 	260 
892 	769 	325 
892 	769 	389 
892 	769 	454 
892 	769 	518 
892 	769 	579 
892 	769 	643 
892 	769 	706 
892 	769 	769 
892 	769 	827 
892 	769 	892 
892 	769 	958 
892 	769 	1023 
892 	827 	0 
892 	827 	62 
892 	827 	133 
892 	827 	196 
892 	827 	260 
892 	827 	325 
892 	827 	389 
892 	827 	454 
892 	827 	518 
892 	827 	579 
892 	827 	643 
892 	827 	706 
892 	827 	769 
892 	827 	827 
892 	827 	892 
892 	827 	958 
892 	827 	1023 
892 	892 	0 
892 	892 	62 
892 	892 	133 
892 	892 	196 
892 	892 	260 
892 	892 	325 
892 	892 	389 
892 	892 	454 
892 	892 	518 
892 	892 	579 
892 	892 	643 
892 	892 	706 
892 	892 	769 
892 	892 	827 
892 	892 	892 
892 	892 	958 
892 	892 	1023 
892 	958 	0 
892 	958 	62 
892 	958 	133 
892 	958 	196 
892 	958 	260 
892 	958 	325 
892 	958 	389 
892 	958 	454 
892 	958 	518 
892 	958 	579 
892 	958 	643 
892 	958 	706 
892 	958 	769 
892 	958 	827 
892 	958 	892 
892 	958 	958 
892 	958 	1023 
892 	1023 	0 
892 	1023 	62 
892 	1023 	133 
892 	1023 	196 
892 	1023 	260 
892 	1023 	325 
892 	1023 	389 
892 	1023 	454 
892 	1023 	518 
892 	1023 	579 
892 	1023 	643 
892 	1023 	706 
892 	1023 	769 
892 	1023 	827 
892 	1023 	892 
892 	1023 	958 
892 	1023 	1023 
958 	0 	0 
958 	0 	62 
958 	0 	133 
958 	0 	196 
958 	0 	260 
958 	0 	325 
958 	0 	389 
958 	0 	454 
958 	0 	518 
958 	0 	579 
958 	0 	643 
958 	0 	706 
958 	0 	769 
958 	0 	827 
958 	0 	892 
958 	0 	958 
958 	0 	1023 
958 	62 	0 
958 	62 	62 
958 	62 	133 
958 	62 	196 
958 	62 	260 
958 	62 	325 
958 	62 	389 
958 	62 	454 
958 	62 	518 
958 	62 	579 
958 	62 	643 
958 	62 	706 
958 	62 	769 
958 	62 	827 
958 	62 	892 
958 	62 	958 
958 	62 	1023 
958 	133 	0 
958 	133 	62 
958 	133 	133 
958 	133 	196 
958 	133 	260 
958 	133 	325 
958 	133 	389 
958 	133 	454 
958 	133 	518 
958 	133 	579 
958 	133 	643 
958 	133 	706 
958 	133 	769 
958 	133 	827 
958 	133 	892 
958 	133 	958 
958 	133 	1023 
958 	196 	0 
958 	196 	62 
958 	196 	133 
958 	196 	196 
958 	196 	260 
958 	196 	325 
958 	196 	389 
958 	196 	454 
958 	196 	518 
958 	196 	579 
958 	196 	643 
958 	196 	706 
958 	196 	769 
958 	196 	827 
958 	196 	892 
958 	196 	958 
958 	196 	1023 
958 	260 	0 
958 	260 	62 
958 	260 	133 
958 	260 	196 
958 	260 	260 
958 	260 	325 
958 	260 	389 
958 	260 	454 
958 	260 	518 
958 	260 	579 
958 	260 	643 
958 	260 	706 
958 	260 	769 
958 	260 	827 
958 	260 	892 
958 	260 	958 
958 	260 	1023 
958 	325 	0 
958 	325 	62 
958 	325 	133 
958 	325 	196 
958 	325 	260 
958 	325 	325 
958 	325 	389 
958 	325 	454 
958 	325 	518 
958 	325 	579 
958 	325 	643 
958 	325 	706 
958 	325 	769 
958 	325 	827 
958 	325 	892 
958 	325 	958 
958 	325 	1023 
958 	389 	0 
958 	389 	62 
958 	389 	133 
958 	389 	196 
958 	389 	260 
958 	389 	325 
958 	389 	389 
958 	389 	454 
958 	389 	518 
958 	389 	579 
958 	389 	643 
958 	389 	706 
958 	389 	769 
958 	389 	827 
958 	389 	892 
958 	389 	958 
958 	389 	1023 
958 	454 	0 
958 	454 	62 
958 	454 	133 
958 	454 	196 
958 	454 	260 
958 	454 	325 
958 	454 	389 
958 	454 	454 
958 	454 	518 
958 	454 	579 
958 	454 	643 
958 	454 	706 
958 	454 	769 
958 	454 	827 
958 	454 	892 
958 	454 	958 
958 	454 	1023 
958 	518 	0 
958 	518 	62 
958 	518 	133 
958 	518 	196 
958 	518 	260 
958 	518 	325 
958 	518 	389 
958 	518 	454 
958 	518 	518 
958 	518 	579 
958 	518 	643 
958 	518 	706 
958 	518 	769 
958 	518 	827 
958 	518 	892 
958 	518 	958 
958 	518 	1023 
958 	579 	0 
958 	579 	62 
958 	579 	133 
958 	579 	196 
958 	579 	260 
958 	579 	325 
958 	579 	389 
958 	579 	454 
958 	579 	518 
958 	579 	579 
958 	579 	643 
958 	579 	706 
958 	579 	769 
958 	579 	827 
958 	579 	892 
958 	579 	958 
958 	579 	1023 
958 	643 	0 
958 	643 	62 
958 	643 	133 
958 	643 	196 
958 	643 	260 
958 	643 	325 
958 	643 	389 
958 	643 	454 
958 	643 	518 
958 	643 	579 
958 	643 	643 
958 	643 	706 
958 	643 	769 
958 	643 	827 
958 	643 	892 
958 	643 	958 
958 	643 	1023 
958 	706 	0 
958 	706 	62 
958 	706 	133 
958 	706 	196 
958 	706 	260 
958 	706 	325 
958 	706 	389 
958 	706 	454 
958 	706 	518 
958 	706 	579 
958 	706 	643 
958 	706 	706 
958 	706 	769 
958 	706 	827 
958 	706 	892 
958 	706 	958 
958 	706 	1023 
958 	769 	0 
958 	769 	62 
958 	769 	133 
958 	769 	196 
958 	769 	260 
958 	769 	325 
958 	769 	389 
958 	769 	454 
958 	769 	518 
958 	769 	579 
958 	769 	643 
958 	769 	706 
958 	769 	769 
958 	769 	827 
958 	769 	892 
958 	769 	958 
958 	769 	1023 
958 	827 	0 
958 	827 	62 
958 	827 	133 
958 	827 	196 
958 	827 	260 
958 	827 	325 
958 	827 	389 
958 	827 	454 
958 	827 	518 
958 	827 	579 
958 	827 	643 
958 	827 	706 
958 	827 	769 
958 	827 	827 
958 	827 	892 
958 	827 	958 
958 	827 	1023 
958 	892 	0 
958 	892 	62 
958 	892 	133 
958 	892 	196 
958 	892 	260 
958 	892 	325 
958 	892 	389 
958 	892 	454 
958 	892 	518 
958 	892 	579 
958 	892 	643 
958 	892 	706 
958 	892 	769 
958 	892 	827 
958 	892 	892 
958 	892 	958 
958 	892 	1023 
958 	958 	0 
958 	958 	62 
958 	958 	133 
958 	958 	196 
958 	958 	260 
958 	958 	325 
958 	958 	389 
958 	958 	454 
958 	958 	518 
958 	958 	579 
958 	958 	643 
958 	958 	706 
958 	958 	769 
958 	958 	827 
958 	958 	892 
958 	958 	958 
958 	958 	1023 
958 	1023 	0 
958 	1023 	62 
958 	1023 	133 
958 	1023 	196 
958 	1023 	260 
958 	1023 	325 
958 	1023 	389 
958 	1023 	454 
958 	1023 	518 
958 	1023 	579 
958 	1023 	643 
958 	1023 	706 
958 	1023 	769 
958 	1023 	827 
958 	1023 	892 
958 	1023 	958 
958 	1023 	1023 
1023 	0 	0 
1023 	0 	62 
1023 	0 	133 
1023 	0 	196 
1023 	0 	260 
1023 	0 	325 
1023 	0 	389 
1023 	0 	454 
1023 	0 	518 
1023 	0 	579 
1023 	0 	643 
1023 	0 	706 
1023 	0 	769 
1023 	0 	827 
1023 	0 	892 
1023 	0 	958 
1023 	0 	1023 
1023 	62 	0 
1023 	62 	62 
1023 	62 	133 
1023 	62 	196 
1023 	62 	260 
1023 	62 	325 
1023 	62 	389 
1023 	62 	454 
1023 	62 	518 
1023 	62 	579 
1023 	62 	643 
1023 	62 	706 
1023 	62 	769 
1023 	62 	827 
1023 	62 	892 
1023 	62 	958 
1023 	62 	1023 
1023 	133 	0 
1023 	133 	62 
1023 	133 	133 
1023 	133 	196 
1023 	133 	260 
1023 	133 	325 
1023 	133 	389 
1023 	133 	454 
1023 	133 	518 
1023 	133 	579 
1023 	133 	643 
1023 	133 	706 
1023 	133 	769 
1023 	133 	827 
1023 	133 	892 
1023 	133 	958 
1023 	133 	1023 
1023 	196 	0 
1023 	196 	62 
1023 	196 	133 
1023 	196 	196 
1023 	196 	260 
1023 	196 	325 
1023 	196 	389 
1023 	196 	454 
1023 	196 	518 
1023 	196 	579 
1023 	196 	643 
1023 	196 	706 
1023 	196 	769 
1023 	196 	827 
1023 	196 	892 
1023 	196 	958 
1023 	196 	1023 
1023 	260 	0 
1023 	260 	62 
1023 	260 	133 
1023 	260 	196 
1023 	260 	260 
1023 	260 	325 
1023 	260 	389 
1023 	260 	454 
1023 	260 	518 
1023 	260 	579 
1023 	260 	643 
1023 	260 	706 
1023 	260 	769 
1023 	260 	827 
1023 	260 	892 
1023 	260 	958 
1023 	260 	1023 
1023 	325 	0 
1023 	325 	62 
1023 	325 	133 
1023 	325 	196 
1023 	325 	260 
1023 	325 	325 
1023 	325 	389 
1023 	325 	454 
1023 	325 	518 
1023 	325 	579 
1023 	325 	643 
1023 	325 	706 
1023 	325 	769 
1023 	325 	827 
1023 	325 	892 
1023 	325 	958 
1023 	325 	1023 
1023 	389 	0 
1023 	389 	62 
1023 	389 	133 
1023 	389 	196 
1023 	389 	260 
1023 	389 	325 
1023 	389 	389 
1023 	389 	454 
1023 	389 	518 
1023 	389 	579 
1023 	389 	643 
1023 	389 	706 
1023 	389 	769 
1023 	389 	827 
1023 	389 	892 
1023 	389 	958 
1023 	389 	1023 
1023 	454 	0 
1023 	454 	62 
1023 	454 	133 
1023 	454 	196 
1023 	454 	260 
1023 	454 	325 
1023 	454 	389 
1023 	454 	454 
1023 	454 	518 
1023 	454 	579 
1023 	454 	643 
1023 	454 	706 
1023 	454 	769 
1023 	454 	827 
1023 	454 	892 
1023 	454 	958 
1023 	454 	1023 
1023 	518 	0 
1023 	518 	62 
1023 	518 	133 
1023 	518 	196 
1023 	518 	260 
1023 	518 	325 
1023 	518 	389 
1023 	518 	454 
1023 	518 	518 
1023 	518 	579 
1023 	518 	643 
1023 	518 	706 
1023 	518 	769 
1023 	518 	827 
1023 	518 	892 
1023 	518 	958 
1023 	518 	1023 
1023 	579 	0 
1023 	579 	62 
1023 	579 	133 
1023 	579 	196 
1023 	579 	260 
1023 	579 	325 
1023 	579 	389 
1023 	579 	454 
1023 	579 	518 
1023 	579 	579 
1023 	579 	643 
1023 	579 	706 
1023 	579 	769 
1023 	579 	827 
1023 	579 	892 
1023 	579 	958 
1023 	579 	1023 
1023 	643 	0 
1023 	643 	62 
1023 	643 	133 
1023 	643 	196 
1023 	643 	260 
1023 	643 	325 
1023 	643 	389 
1023 	643 	454 
1023 	643 	518 
1023 	643 	579 
1023 	643 	643 
1023 	643 	706 
1023 	643 	769 
1023 	643 	827 
1023 	643 	892 
1023 	643 	958 
1023 	643 	1023 
1023 	706 	0 
1023 	706 	62 
1023 	706 	133 
1023 	706 	196 
1023 	706 	260 
1023 	706 	325 
1023 	706 	389 
1023 	706 	454 
1023 	706 	518 
1023 	706 	579 
1023 	706 	643 
1023 	706 	706 
1023 	706 	769 
1023 	706 	827 
1023 	706 	892 
1023 	706 	958 
1023 	706 	1023 
1023 	769 	0 
1023 	769 	62 
1023 	769 	133 
1023 	769 	196 
1023 	769 	260 
1023 	769 	325 
1023 	769 	389 
1023 	769 	454 
1023 	769 	518 
1023 	769 	579 
1023 	769 	643 
1023 	769 	706 
1023 	769 	769 
1023 	769 	827 
1023 	769 	892 
1023 	769 	958 
1023 	769 	1023 
1023 	827 	0 
1023 	827 	62 
1023 	827 	133 
1023 	827 	196 
1023 	827 	260 
1023 	827 	325 
1023 	827 	389 
1023 	827 	454 
1023 	827 	518 
1023 	827 	579 
1023 	827 	643 
1023 	827 	706 
1023 	827 	769 
1023 	827 	827 
1023 	827 	892 
1023 	827 	958 
1023 	827 	1023 
1023 	892 	0 
1023 	892 	62 
1023 	892 	133 
1023 	892 	196 
1023 	892 	260 
1023 	892 	325 
1023 	892 	389 
1023 	892 	454 
1023 	892 	518 
1023 	892 	579 
1023 	892 	643 
1023 	892 	706 
1023 	892 	769 
1023 	892 	827 
1023 	892 	892 
1023 	892 	958 
1023 	892 	1023 
1023 	958 	0 
1023 	958 	62 
1023 	958 	133 
1023 	958 	196 
1023 	958 	260 
1023 	958 	325 
1023 	958 	389 
1023 	958 	454 
1023 	958 	518 
1023 	958 	579 
1023 	958 	643 
1023 	958 	706 
1023 	958 	769 
1023 	958 	827 
1023 	958 	892 
1023 	958 	958 
1023 	958 	1023 
1023 	1023 	0 
1023 	1023 	62 
1023 	1023 	133 
1023 	1023 	196 
1023 	1023 	260 
1023 	1023 	325 
1023 	1023 	389 
1023 	1023 	454 
1023 	1023 	518 
1023 	1023 	579 
1023 	1023 	643 
1023 	1023 	706 
1023 	1023 	769 
1023 	1023 	827 
1023 	1023 	892 
1023 	1023 	958 
1023 	1023 	1023 
