3707
4
12
0
1
10
17409
0
0
0
17413
32
2
6
0
1

// Volume
1
0
0
0
0
0
0
0
0
0
20
5
50
10000
-96
-70
-50
-20
0
-96
-70
-50
-20
-20
1
16
32
32
32
32
32
32
32
32
32
32
32
32
32
32
32
32
32
32
32
32
32
32
32
32
32
32
32
32
32
32
32
32
32
32
32
32
32
32
32
32
32
32
32
32
32
32
32
32
32
32
32
32
32
32
32
32
32
32
32
32
32
32
32
32
32
32
32
32
32
32
32
32
32
32
32
32
32
32
32
32
32
32
32
32
32
32
32
32
32
32
32
32
32
32
32
32
32
32
32
32
32
32
32
32
32
32
32
32
32
32
32
32
32
32
32
32
32
32
32
32
32
32
32
32
32
32
32
32
32
32
32
32
32
32
32
32
32
32
32
32
32
32
32
32
32
32
32
32
32
32
32
32
32
32
32
32
32
32
32
32
32
32
32
32
32
32
32
32
32
32
32
32
32
32
32
32
32
32
32
32
32
32
32
32
32
32
32
32
32
32
32
32
32
32
32
32
32
32
32
32
32
32
32
32
32
32
32
32
32
32
32
32
32
32
32
32
32
32
32
32
32
32
32
32
32
32
32
32
32
32
32
32
32
32
32
32
32
32
32
32
32
32
32
32
32
32
32
32
32
32
32
32
32
32
32
32
32
32
32
32
32
32
32
32
32
32
32
32
32
32
32
32
32
32
32
32
32
32
32
32
32
32
32
32
32
32
32
32
32
32
32
32
32
32
32
32
32
32
32
32
32
32
32
32
32
32
32
32
32
32
32
32
32
32
32
32
32
32
32
32
32
32
32
32
32
32
32
32
32
32
32
32
32
32
32
32
32
32
32
32
32
32
32
32
32
32
32
32
32
32
32
32
32
32
32
32
32
32
32
32
32
32
32
32
32
32
32
32
32
32
32
32
32
32
32
32
32
32
32
32
32
32
32
32
32
32
32
32
32
32
32
32
32
32
32
32
32
32
32
32
32
32
32
32
32
32
32
32
32
32
32
32
32
32
32
32
32
32
32
32
32
32
32
32
32
32
32
32
32
32
32
32
32
32
32
32
32
32
32
32
32
32
32
32
32
32
32
32
32
32
32
32
32
32
32
32
32
32
32
32
32
32
32
32
32
32
32
32
32
32
32
32
32
32
32
32
32
32
32
32
32
32
32
32
32
32
32
32
32
32
32
32
32
32
32
32
32
32
32
32
32
32
32
32
32
32
32
32
32
32
32
32
32
32
32
32
32
32
32
32
32
32
32
32
32
32
32
32
32
32
32
32
32
32
32
32
32
32
32
32
32
32
32
32
32
32
32
32
32
32
32
32
32
32
32
32
32
32
32
32
32
32
32
32
32
32
32
32
32
32
32
32
32
32
32
32
32
32
32
32
32
32
32
32
32
32
32
32
32
32
32
32
32
32
32
32
32
32
32
32
32
32
32
32
32
32
32
32
32
32
32
32
32
32
32
32
32
32
32
32
32
32
32
32
32
32
32
32
32
32
32
32
32
32
32
32
32
32
32
32
32
32
32
32
32
32
32
32
32
32
32
32
32
32
32
32
32
32
32
32
32
32
32
32
32
32
32
32
32
32
32
32
32
32
32
32
32
32
32
32
32
32
32
32
32
32
32
32
32
32
32
32
32
32
32
32
32
32
32
32
32
32
32
32
32
32
32
32
32
32
32
32
32
32
32
32
32
32
32
32
32
32
32
32
32
32
32
32
32
32
32
32
32
32
32
32
32
32
32
32
32
32
32
32
32
32
32
32
32
32
32
32
32
32
32
32
32
32
32
32
32
32
32
32
32
32
32
32
32
32
32
32
32
32
32
32
32
32
32
32
32
32
32
32
32
32
32
32
32
32
32
32
32
32
32
32
32
32
32
32
32
32
32
32
32
32
32
32
32
32
32
32
32
32
32
32
32
32
32
32
32
32
32
32
32
32
32
32
32
32
32
32
32
32
32
32
32
32
32
32
32
32
32
32
32
32
32
32
32
32
32
32
32
32
32
32
32
32
32
32
32
32
32
32
32
32
32
32
32
32
32
32
32
32
32
32
32
32
32
32
32
32
32
32
32
32
32
32
32
32
32
32
32
32
32
32
32
32
32
32
32
32
32
32
32
32
32
32
32
32
32
32
32
32
32
32
32
32
32
32
32
32
32
32
32
32
32
32
32
32
32
32
32
32
32
32
32
32
32
32
32
32
32
32
32
32
32
32
32
32
32
32
32
32
32
32
32
32
32
32
32
32
32
32
32
32
32
32
32
32
32
32
32
32
32
32
32
32
32
32
32
32
32
32
32
32
32
32
32
32
32
32
32
32
32
32
32
32
32
32
32
32
32
32
32
32
32
32
32
32
32
32
32
32
32
32
32
32
32
32
32
32
32
32
32
32
32
32
32
32
32
32
32
32
32
32
32
32
32
32
32
32
32
32
32
32
32
32
32
32
32
32
32
32
32
32
32
32
32
32
32
32
32
32
32
32
32
32
32
32
32
32
32
32
32
32
32
32
32
32
32
32
32
32
32
32
32
32
32
32
32
32
32
32
32
32
32
32
32
32
32
32
32
32
32
32
32
32
32
32
32
32
32
32
32
32
32
32
32
32
32
32
32
32
32
32
32
32
32
32
32
32
32
32
32
32
32
32
32
32
32
32
32
32
32
32
32
32
32
32
32
32
32
32
32
32
32
32
32
32
32
32
32
32
32
32
32
32
32
32
32
32
32
32
32
32
32
32
32
32
32
32
32
32
32
32
32
32
32
32
32
32
32
32
32
32
32
32
32
32
32
32
32
32
32
32
32
32
32
32
32
32
32
32
32
32
32
32
32
32
32
32
32
32
32
32
32
32
32
32
32
32
32
32
32
32
32
32
32
32
32
32
32
32
32
32
32
32
32
32
32
32
32
32
32
32
32
32
32
32
32
32
32
32
32
32
32
32
32
32
32
32
32
32
32
32
32
32
32
32
32
32
32
32
32
32
32
32
32
32
32
32
32
32
32
32
32
32
32
32
32
32
32
32
32
32
32
32
32
32
32
32
32
32
32
32
32
32
32
32
32
32
32
32
32
32
32
32
32
32
32
32
32
32
32
32
32
32
32
32
32
32
32
32
32
32
32
32
32
32
32
32
32
32
32
32
32
32
32
32
32
32
32
32
32
32
32
32
32
32
32
32
32
32
32
32
32
32
32
32
32
32
32
32
32
32
32
32
32
32
32
32
32
32
32
32
32
32
32
32
32
32
32
32
32
32
32
32
32
32
32
32
32
32
32
32
32
32
32
32
32
32
32
32
32
32
32
32
32
32
32
32
32
32
32
32
32
32
32
32
32
32
32
32
32
32
32
32
32
32
32
32
32
32
32
32
32
32
32
32
32
32
32
32
32
32
32
32
32
32
32
32
32
32
32
32
32
32
32
32
32
32
32
32
32
32
32
32
32
32
32
32
32
32
32
32
32
32
32
32
32
32
32
32
32
32
32
32
32
32
32
32
32
32
32
32
32
32
32
32
32
32
32
32
32
32
32
32
32
32
32
32
32
32
32
32
32
32
32
32
32
32
32
32
32
32
32
32
32
32
32
32
32
32
32
32
32
32
32
32
32
32
32
32
32
32
32
32
32
32
32
32
32
32
32
32
32
32
32
32
32
32
32
32
32
32
32
32
32
32
32
32
32
32
32
32
32
32
32
32
32
32
32
32
32
32
32
32
32
32
32
32
32
32
32
32
32
32
32
32
32
32
32
32
32
32
32
32
32
32
32
32
32
32
32
32
32
32
32
32
32
32
32
32
32
32
32
32
32
32
32
32
32
32
32
32
32
32
32
32
32
32
32
32
32
32
32
32
32
32
32
32
32
32
32
32
32
32
32
32
32
32
32
32
32
32
32
32
32
32
32
32
32
32
32
32
32
32
32
32
32
32
32
32
32
32
32
32
32
32
32
32
32
32
32
32
32
32
32
32
32
32
32
32
32
32
32
32
32
32
32
32
32
32
32
32
32
32
32
32
32
32
32
32
32
32
32
32
32
32
32
32
32
32
32
32
32
32
32
32
32
32
32
32
32
32
32
32
32
32
32
32
32
32
32
32
32
32
32
32
32
32
32
32
32
32
32
32
32
32
32
32
32
32
32
32
32
32
32
32
32
32
32
32
32
32
32
32
32
32
32
32
32
32
32
32
32
32
32
32
32
32
32
32
32
32
32
32
32
32
32
32
32
32
32
32
32
32
32
32
32
32
32
32
32
32
32
32
32
32
32
32
32
32
32
32
32
32
32
32
32
32
32
32
32
32
32
32
32
32
32
32
32
32
32
32
32
32
32
32
32
32
32
32
32
32
32
32
32
32
32
32
32
32
32
32
32
32
32
32
32
32
32
32
32
32
32
32
32
32
32
32
32
32
32
32
32
32
32
32
32
32
32
32
32
32
32
32
32
32
32
32
32
32
32
32
32
32
32
32
32
32
32
32
32
32
32
32
32
32
32
32
32
32
32
32
32
32
32
32
32
32
32
32
32
32
32
32
32
32
32
32
32
32
32
32
32
32
32
32
32
32
32
32
32
32
32
32
32
32
32
32
32
32
32
32
32
32
32
32
32
32
32
32
32
32
32
32
32
32
32
32
32
32
32
32
32
32
32
32
32
32
32
32
32
32
32
32
32
32
32
32
32
32
32
32
32
32
32
32
32
32
32
32
32
32
32
32
32
32
32
32
32
32
32
32
32
32
32
32
32
32
32
32
32
32
32
32
32
32
32
32
32
32
32
32
32
32
32
32
32
32
32
32
32
32
32
32
32
32
32
32
32
32
32
32
32
32
32
32
32
32
32
32
32
32
32
32
32
32
32
32
32
32
32
32
32
32
32
32
32
32
32
32
32
32
32
32
32
32
32
32
32
32
32
32
32
32
32
32
32
32
32
32
32
32
32
32
32
32
32
32
32
32
32
32
32
32
32
32
32
32
32
32
32
32
32
32
32
32
32
32
32
32
32
32
32
32
32
32
32
32
32
32
32
32
32
32
32
32
32
32
32
32
32
32
32
32
32
32
32
32
32
32
32
32
32
32
32
32
32
32
32
32
32
32
32
32
32
32
32
32
32
32
32
32
32
32
32
32
32
32
32
32
32
32
32
32
32
32
32
32
32
32
32
32
32
32
32
32
32
32
32
32
32
32
32
32
32
32
32
32
32
32
32
32
32
32
32
32
32
32
32
32
32
32
32
32
32
32
32
32
32
32
32
32
32
32
32
32
32
32
32
32
32
32
32
32
32
32
32
32
32
32
32
32
32
32
32
32
32
32
32
32
32
32
32
32
32
32
0
33
32767
30
100
50
50
-6
-6
-48
-48
0
0
200
-16
-16
14745
6
-24
12
-78
-75
-73
-80
-89
-89
-90
-92
-92
-94
-92
-91
-93
-95
-95
-95
-91
-86
-92
-99
-99
-100
-97
-98
-95
-94
-96
-99
-96
-98
-98
-100
-100
-101
-101
-104
-105
-106
-105
-105
-104
-104
-105
-106
-106
-106
-107
-107
-107
-107
-107
-107
-107
-107
-107
-107
-107
-107
-107
-107
-107
-108
-108
-108
-108
-108
-108
-108
-108
-106
-106
-107
-108
-108
-107
-108
-109
-109
-109
-108
-108
-109
-109
-109
-108
-109
-109
-109
-110
-109
-110
-110
-109
-109
-109
-109
-109
-109
-109
-109
-109
-109
-109
-109
-110
-110
-110
-110
-111
-110
-110
-111
-110
-110
-110
-110
-110
-110
-110
-110
-110
-110
-110
-110
-110
-110
-110
-111
-110
-110
-110
-111
-111
-110
-110
-110
-110
-111
-111
-111
-111
-111
-111
-111
-111
-111
-111
-111
-110
-110
-111
-111
-111
-111
-110
-110
-110
-111
-111
-111
-111
-111
-111
-111
-111
-111
-111
-111
-111
-112
-111
-111
-111
-111
-111
-111
-111
-111
-111
-110
-111
-111
-111
-112
-112
-112
-112
-111
-111
-111
-111
-112
-111
-111
-111
-111
-111
-111
-111
-111
-111
-112
-112
-111
-111
-111
-111
-112
-111
-111
-111
-111
-112
-111
-111
-111
-111
-111
-111
-111
-111
-111
-111
-111
-112
-111
-111
-111
-111
-111
-111
-111
-111
-112
-111
-111
-111
-111
-111
-112
-111
-111
-111
-111
-111
-111
-111
-112
-111
-111
-111
-111
-112
-112
-111
-111
-111
-111
-111
-111
-111
-111
-111
-111
-111
-112
-110
-111
-111
-111
-111
-111
-111
-111
-112
-111
-111
-111
-111
-111
-111
-111
-111
-111
-111
-111
-110
-110
-111
-111
-111
-111
-110
-111
-112
-111
-111
-111
-111
-111
-111
-111
-110
-111
-110
-110
-111
-111
-111
-111
-110
-111
-110
-110
-111
-110
-111
-111
-110
-110
-111
-111
-111
-111
-111
-110
-111
-110
-111
-111
-111
-111
-110
-110
-111
-110
-111
-111
-109
-110
-110
-110
-110
-110
-110
-110
-110
-110
-109
-110
-110
-110
-110
-109
-110
-110
-110
-110
-109
-109
-110
-110
-110
-109
-109
-110
-110
-109
-109
-109
-110
-109
-109
-109
-108
-109
-110
-109
-109
-108
-109
-108
-109
-109
-108
-108
-108
-108
-109
-108
-108
-108
-108
-108
-108
-108
-108
-108
-108
-107
-108
-108
-108
-108
-107
-107
-108
-107
-107
-107
-106
-107
-107
-107
-108
-107
-107
-107
-107
-107
-107
-108
-108
-107
-107
-106
-107
-107
-107
-107
-106
-107
-107
-108
-108
-103
-106
-108
-108
-108
-107
-107
-108
-107
-107
-106
-107
-108
-108
-108
-105
-104
-109
-108
-109
-108
-107
-109
-108
-109
-108
-108
-109
-109
-109
-108
-105
-109
-109
-109
-109
-109
-109
-109
-109
-109
-108
-109
-110
-109
-109
-106
-108
-109
-109
-109
-106
-107
-110
-110
-110
-109
-109
-109
-109
-110
-110
-109
-110
-110
-110
-110
-109
-110
-110
-110
-110
-108
-111
-112
-112
-114
-114
-77
-76
-73
-80
-88
-89
-90
-91
-92
-94
-94
-93
-94
-96
-96
-97
-93
-88
-91
-94
-95
-96
-92
-93
-96
-96
-98
-99
-97
-99
-100
-101
-99
-102
-103
-105
-104
-104
-104
-104
-104
-105
-105
-106
-106
-106
-106
-106
-106
-106
-106
-107
-107
-107
-106
-106
-106
-107
-107
-106
-107
-107
-108
-108
-107
-107
-107
-108
-107
-106
-105
-106
-107
-106
-106
-105
-106
-107
-107
-108
-108
-108
-109
-108
-107
-108
-108
-108
-109
-108
-108
-108
-108
-109
-109
-109
-108
-108
-108
-108
-109
-108
-109
-109
-109
-109
-109
-109
-109
-109
-109
-110
-110
-109
-110
-110
-110
-109
-110
-110
-109
-109
-110
-110
-110
-110
-110
-109
-110
-110
-110
-109
-110
-110
-109
-110
-110
-109
-110
-110
-110
-110
-110
-110
-110
-110
-110
-110
-110
-110
-110
-110
-110
-110
-110
-110
-110
-110
-110
-110
-110
-110
-110
-110
-110
-110
-110
-110
-110
-110
-110
-110
-111
-111
-110
-110
-110
-110
-110
-110
-110
-110
-110
-111
-111
-110
-110
-111
-110
-110
-110
-110
-110
-111
-110
-110
-110
-110
-111
-110
-110
-110
-110
-110
-110
-110
-110
-111
-111
-111
-110
-111
-111
-111
-111
-110
-111
-110
-111
-111
-110
-111
-110
-110
-111
-111
-111
-111
-111
-111
-111
-111
-110
-110
-111
-110
-110
-110
-110
-111
-111
-110
-110
-111
-111
-110
-111
-111
-110
-111
-111
-111
-110
-110
-110
-110
-110
-111
-111
-110
-111
-111
-111
-111
-111
-111
-111
-111
-111
-111
-110
-111
-111
-111
-111
-111
-111
-110
-110
-111
-110
-110
-110
-111
-110
-110
-111
-110
-110
-110
-110
-110
-111
-111
-110
-111
-110
-110
-110
-110
-110
-110
-110
-110
-110
-111
-111
-110
-110
-110
-110
-110
-110
-110
-110
-110
-110
-110
-110
-110
-110
-110
-110
-110
-110
-110
-110
-109
-110
-110
-110
-109
-110
-109
-110
-109
-110
-109
-107
-109
-109
-109
-109
-109
-109
-109
-109
-109
-109
-109
-109
-109
-109
-108
-109
-109
-109
-109
-108
-108
-109
-109
-108
-108
-109
-109
-108
-109
-108
-108
-108
-109
-109
-108
-108
-109
-108
-109
-109
-108
-109
-109
-109
-108
-106
-108
-108
-108
-109
-109
-108
-109
-109
-110
-109
-109
-109
-109
-109
-109
-110
-109
-109
-109
-111
-110
-110
-110
-110
-110
-110
-110
-110
-110
-111
-110
-111
-110
-110
-111
-111
-111
-110
-110
-110
-110
-110
-110
-111
-110
-110
-111
-110
-111
-111
-111
-111
-111
-111
-110
-110
-111
-111
-111
-111
-111
-110
-110
-110
-111
-110
-111
-111
-111
-111
-111
-110
-110
-111
-111
-111
-111
-111
-111
-111
-111
-111
-111
-111
-111
-111
-111
-111
-111
-111
-111
-111
-111
-111
-111
-111
-111
-111
-111
-111
-111
-111
-111
-111
-110
-111
-111
-111
-111
-111
-111
-111
-111
-111
-111
-111
-111
-111
-111
-110
-111
-111
-112
-112
-113
-113
-113
-114
0
0
6
0
-13
1
0
-4
2344
4687
0
-15
-3
-20
0
9830
1638
655
0
-20
0
0
300
300
0
0
0
0
32767
0
4
10976
96
-96
28642
0
0
-13
16384
16384
16384
16384
16384
-12
-18
96
440
6826
6826
6826
6826
6826
0
1
20
-3
-15
-15
1
0
-6
-6
1000
1000
3
3
0
0
300
0
100
1
0
20000
0
150
4
5120
200
100
5120
18000
300
0
13000
100
-5120
8000
300
0
8000
100
0
3500
100
0
4900
300
0
5000
100
0
300
200
0
20
96
2
0
200
100
-16
2000
100
-16
0
3
20
2
1
20
0
0
10000
10000
-96
0
0
0
0
-96
0
0
0
0
1
0
20
2
1
20
0
0
10000
10000
-96
0
0
0
0
-96
0
0
0
0
1
0
20
2
1
20
0
0
10000
10000
-96
0
0
0
0
-96
0
0
0
0
1
0
20
2
1
20
0
0
10000
10000
-96
0
0
0
0
-96
0
0
0
0
1
0
20
2
1
20
0
0
10000
10000
-96
0
0
0
0
-96
0
0
0
0
1
0
0
20
2
1
20
0
0
10000
10000
-96
0
0
0
0
-96
0
0
0
0
1
0
0
0
0
0
0
90
75
100
10
10
1
0
-20
-20
-96
-20
-6
0
50
0
10
0
0
0
0
0
0
0
0
0
0
0
0
0
0
0
0
0
1
2
1
0
0
0
0
0
-30
0
100
96
86
6826
6826
6826
6826
6826
6826
6826
6826
6826
6826

// Volume
