3707
4
12
0
1
10
17409
0
0
0
17413
32
2
6
0
1

// Volume
1
0
0
0
0
0
0
0
0
1
20
5
30
10000
-88
-78
-60
-19
0
-96
-78
-60
-19
-19
1
15
32
32
32
32
32
32
32
32
32
31
30
29
27
26
25
24
24
25
26
26
28
31
34
39
45
49
50
46
41
37
34
33
33
33
32
32
32
33
33
32
31
29
29
28
28
28
27
27
26
26
26
26
27
27
28
29
29
29
29
29
30
30
30
30
31
32
33
33
33
34
35
36
36
36
35
35
35
35
35
35
35
35
34
34
34
34
33
33
33
34
34
34
34
34
35
35
36
36
37
37
38
39
40
40
41
42
43
44
46
47
48
50
51
51
51
51
51
51
51
51
51
51
51
51
51
51
51
51
51
51
51
51
51
51
50
47
44
42
39
37
36
34
33
31
30
29
29
28
27
27
26
26
26
26
26
26
26
26
26
27
27
28
29
29
30
31
32
33
34
35
35
36
37
37
37
37
37
36
36
35
35
34
33
33
32
31
30
30
29
28
27
27
26
25
25
24
23
23
22
22
21
21
21
20
20
20
20
19
19
19
19
19
19
19
19
18
18
18
18
18
18
17
17
17
17
17
17
17
17
17
17
17
17
17
18
18
18
18
19
19
19
20
20
20
20
20
20
20
20
19
19
19
19
19
18
18
18
18
17
17
17
17
16
16
16
16
15
15
15
15
14
14
14
14
14
13
13
13
13
13
13
13
12
12
12
12
12
12
12
12
12
11
11
11
11
11
11
11
11
11
11
11
11
11
11
11
11
11
11
11
10
10
10
10
10
10
10
10
10
10
10
10
10
9
9
9
9
8
8
8
8
7
7
7
7
6
6
6
6
6
6
6
5
5
5
5
5
5
5
5
5
5
5
5
5
5
5
5
4
4
4
4
4
4
4
4
4
4
4
4
4
4
4
4
4
4
4
4
4
4
4
4
4
4
4
4
4
4
4
3
3
3
3
3
3
3
3
3
3
3
3
3
3
3
3
3
3
3
4
4
4
4
4
4
4
4
4
4
4
4
4
4
4
4
4
4
4
5
5
5
5
5
5
5
5
6
6
6
6
6
7
7
7
7
8
8
8
9
9
10
10
10
11
11
11
12
12
12
12
12
12
12
12
12
12
12
11
11
11
11
11
11
11
10
10
10
10
10
10
10
10
10
10
10
10
10
10
10
10
10
10
11
11
11
11
11
11
12
12
12
12
13
13
13
13
13
14
14
14
14
14
15
15
15
16
17
17
16
16
18
20
22
24
23
21
18
16
16
18
19
21
21
21
21
21
22
22
21
21
22
24
24
23
25
28
28
26
25
25
27
28
26
23
22
22
23
23
23
23
24
26
27
27
27
27
27
27
27
27
27
27
27
27
27
27
27
27
27
23
23
32
32
32
32
32
32
32
32
32
33
32
32
32
32
32
32
34
35
38
39
40
40
39
37
36
35
32
29
27
25
24
23
24
24
24
24
25
25
26
27
28
29
31
33
36
38
40
40
39
38
36
34
32
31
31
31
30
29
28
27
27
25
24
24
24
25
25
25
26
26
26
27
27
28
29
30
31
32
33
33
34
34
35
35
35
35
35
35
35
35
34
34
34
33
33
33
32
32
32
32
32
32
32
32
32
32
33
33
33
34
34
35
35
36
36
36
36
36
36
36
36
35
35
35
34
34
34
33
33
33
32
32
32
32
32
33
33
33
33
33
33
33
33
33
32
32
31
31
30
29
28
28
27
26
26
25
24
24
24
23
23
23
23
23
23
23
24
24
24
25
25
26
26
27
27
27
27
27
27
27
27
26
26
25
25
24
24
23
22
22
21
21
21
20
20
20
19
19
19
19
19
19
19
19
19
19
19
19
19
19
19
19
19
19
19
19
19
19
19
19
19
19
19
18
18
18
18
18
18
18
18
18
18
18
18
17
17
17
17
16
16
15
15
15
14
14
14
13
13
13
13
12
12
12
12
12
12
12
12
12
12
12
12
12
12
12
12
12
12
12
12
11
11
11
11
11
11
11
10
10
10
10
9
9
9
9
8
8
8
8
7
7
7
7
7
7
6
6
6
6
6
6
6
6
6
6
6
6
6
6
6
6
6
6
6
6
6
6
5
5
5
5
5
5
4
4
4
4
4
4
4
4
4
3
3
3
3
3
3
3
3
3
3
4
4
4
4
4
4
4
4
4
4
5
5
5
5
5
5
5
5
5
5
5
5
5
5
6
6
6
6
6
6
6
6
6
7
7
7
7
8
8
8
8
9
9
9
10
10
10
10
11
11
11
11
11
12
12
12
12
12
12
12
12
13
13
13
13
13
13
13
14
14
14
14
15
15
15
16
16
16
16
17
17
17
17
17
17
17
17
17
17
17
17
16
16
16
16
16
17
17
17
17
17
17
17
17
18
18
18
18
19
19
19
19
19
20
20
20
21
21
21
21
22
22
22
22
22
22
22
22
22
22
22
22
21
21
21
21
21
21
21
21
21
21
21
21
21
22
22
22
23
23
24
24
25
25
26
26
27
27
27
28
28
28
28
28
28
28
27
27
27
27
26
26
28
29
29
31
34
34
32
32
34
36
33
30
30
33
35
36
35
33
31
32
34
34
34
33
33
34
36
38
37
37
37
41
46
42
37
37
41
40
35
32
33
34
32
30
31
35
37
37
37
37
37
37
37
37
37
37
37
37
37
37
37
37
37
35
35
32
32
32
32
32
32
32
32
32
32
32
32
32
32
32
32
32
32
32
32
32
32
32
32
32
32
32
32
32
32
32
32
32
32
32
32
32
32
32
32
32
32
32
32
32
32
32
32
32
32
32
32
32
32
32
32
32
32
32
32
32
32
32
32
32
32
32
32
32
32
32
32
32
32
32
32
32
32
32
32
32
32
32
32
32
32
32
32
32
32
32
32
32
32
32
32
32
32
32
32
32
32
32
32
32
32
32
32
32
32
32
32
32
32
32
32
32
32
32
32
32
32
32
32
32
32
32
32
32
32
32
32
32
32
32
32
32
32
32
32
32
32
32
32
32
32
32
32
32
32
32
32
32
32
32
32
32
32
32
32
32
32
32
32
32
32
32
32
32
32
32
32
32
32
32
32
32
32
32
32
32
32
32
32
32
32
32
32
32
32
32
32
32
32
32
32
32
32
32
32
32
32
32
32
32
32
32
32
32
32
32
32
32
32
32
32
32
32
32
32
32
32
32
32
32
32
32
32
32
32
32
32
32
32
32
32
32
32
32
32
32
32
32
32
32
32
32
32
32
32
32
32
32
32
32
32
32
32
32
32
32
32
32
32
32
32
32
32
32
32
32
32
32
32
32
32
32
32
32
32
32
32
32
32
32
32
32
32
32
32
32
32
32
32
32
32
32
32
32
32
32
32
32
32
32
32
32
32
32
32
32
32
32
32
32
32
32
32
32
32
32
32
32
32
32
32
32
32
32
32
32
32
32
32
32
32
32
32
32
32
32
32
32
32
32
32
32
32
32
32
32
32
32
32
32
32
32
32
32
32
32
32
32
32
32
32
32
32
32
32
32
32
32
32
32
32
32
32
32
32
32
32
32
32
32
32
32
32
32
32
32
32
32
32
32
32
32
32
32
32
32
32
32
32
32
32
32
32
32
32
32
32
32
32
32
32
32
32
32
32
32
32
32
32
32
32
32
32
32
32
32
32
32
32
32
32
32
32
32
32
32
32
32
32
32
32
32
32
32
32
32
32
32
32
32
32
32
32
32
32
32
32
32
32
32
32
32
32
32
32
32
32
32
32
32
32
32
32
32
32
32
32
32
32
32
32
32
32
32
32
32
32
32
32
32
32
32
32
32
32
32
32
32
32
32
32
32
32
32
32
32
32
32
32
32
32
32
32
32
32
32
32
32
32
32
32
32
32
32
32
32
32
32
32
32
32
32
32
32
32
32
32
32
32
32
32
32
32
32
32
32
32
32
32
32
32
32
32
32
32
32
32
32
32
32
32
32
32
32
32
32
32
32
32
32
32
32
32
32
32
32
32
32
32
32
32
32
32
32
32
32
32
32
32
32
32
32
32
32
32
32
32
32
32
32
32
32
32
32
32
32
32
32
32
32
32
32
32
32
32
32
32
32
32
32
32
32
32
32
32
32
32
32
32
32
32
32
32
32
32
32
32
32
32
32
32
32
32
32
32
32
32
32
32
32
32
32
32
32
32
32
32
32
32
32
32
32
32
32
32
32
32
32
32
32
32
32
32
32
32
32
32
32
32
32
32
32
32
32
32
32
32
32
32
32
32
32
32
32
32
32
32
32
32
32
32
32
32
32
32
32
32
32
32
32
32
32
32
32
32
32
32
32
32
32
32
32
32
32
32
32
32
32
32
32
32
32
32
32
32
32
32
32
32
32
32
32
32
32
32
32
32
32
32
32
32
32
32
32
32
32
32
32
32
32
32
32
32
32
32
32
32
32
32
32
32
32
32
32
32
32
32
32
32
32
32
32
32
32
32
32
32
32
32
32
32
32
32
32
32
32
32
32
32
32
32
32
32
32
32
32
32
32
32
32
32
32
32
32
32
32
32
32
32
32
32
32
32
32
32
32
32
32
32
32
32
32
32
32
32
32
32
32
32
32
32
32
32
32
32
32
32
32
32
32
32
32
32
32
32
32
32
32
32
32
32
32
32
32
32
32
32
32
32
32
32
32
32
32
32
32
32
32
32
32
32
32
32
32
32
32
32
32
32
32
32
32
32
32
32
32
32
32
32
32
32
32
32
32
32
32
32
32
32
32
32
32
32
32
32
32
32
32
32
32
32
32
32
32
32
32
32
32
32
32
32
32
32
32
32
32
32
32
32
32
32
32
32
32
32
32
32
32
32
32
32
32
32
32
32
32
32
32
32
32
32
32
32
32
32
32
32
32
32
32
32
32
32
32
32
32
32
32
32
32
32
32
32
32
32
32
32
32
32
32
32
32
32
32
32
32
32
32
32
32
32
32
32
32
32
32
32
32
32
32
32
32
32
32
32
32
32
32
32
32
32
32
32
32
32
32
32
32
32
32
32
32
32
32
32
32
32
32
32
32
32
32
32
32
32
32
32
32
32
32
32
32
32
32
32
32
32
32
32
32
32
32
32
32
32
32
32
32
32
32
32
32
32
32
32
32
32
32
32
32
32
32
32
32
32
32
32
32
32
32
32
32
32
32
32
32
32
32
32
32
32
32
32
32
32
32
32
32
32
32
32
32
32
32
32
32
32
32
32
32
32
32
32
32
32
32
32
32
32
32
32
32
32
32
32
32
32
32
32
32
32
32
32
32
32
32
32
32
32
32
32
32
32
32
32
0
33
32767
30
100
50
50
-6
-6
-48
-48
0
1
200
-18
-18
14745
6
-24
12
-88
-82
-86
-90
-93
-96
-99
-101
-102
-102
-102
-103
-103
-104
-104
-104
-106
-106
-107
-107
-107
-107
-107
-107
-107
-107
-108
-108
-109
-109
-108
-109
-109
-109
-109
-109
-109
-109
-110
-110
-111
-111
-110
-110
-111
-111
-111
-111
-111
-112
-111
-110
-111
-111
-110
-111
-112
-111
-111
-111
-112
-113
-112
-112
-111
-113
-112
-112
-112
-111
-112
-112
-113
-113
-113
-112
-112
-112
-113
-112
-112
-112
-113
-113
-113
-113
-113
-113
-113
-112
-113
-113
-113
-113
-113
-113
-113
-113
-114
-113
-113
-113
-113
-113
-113
-113
-113
-113
-114
-113
-114
-113
-113
-114
-114
-114
-113
-113
-114
-114
-114
-114
-114
-113
-114
-114
-113
-114
-114
-114
-114
-115
-113
-113
-114
-114
-114
-114
-114
-113
-114
-114
-114
-114
-114
-114
-114
-115
-114
-114
-115
-115
-114
-114
-114
-114
-114
-114
-115
-115
-114
-114
-114
-115
-114
-115
-115
-114
-114
-114
-114
-114
-115
-115
-114
-114
-114
-114
-114
-114
-115
-115
-115
-114
-115
-114
-115
-114
-115
-115
-114
-114
-115
-115
-115
-115
-114
-115
-115
-115
-114
-115
-115
-116
-115
-114
-115
-115
-115
-115
-115
-115
-115
-115
-115
-115
-115
-115
-115
-115
-114
-114
-114
-114
-115
-115
-116
-115
-115
-115
-115
-115
-115
-115
-115
-114
-114
-115
-115
-115
-114
-115
-115
-115
-114
-115
-114
-114
-114
-115
-115
-114
-114
-114
-115
-115
-115
-115
-114
-114
-115
-115
-114
-114
-114
-114
-115
-115
-114
-115
-115
-115
-115
-114
-115
-114
-113
-115
-115
-115
-114
-114
-114
-114
-115
-115
-115
-114
-114
-114
-115
-114
-114
-114
-114
-115
-115
-115
-115
-114
-115
-114
-115
-115
-115
-115
-115
-114
-114
-114
-114
-114
-114
-114
-114
-114
-114
-114
-114
-114
-114
-114
-114
-114
-115
-114
-114
-114
-115
-114
-114
-114
-112
-112
-114
-114
-114
-113
-114
-114
-113
-114
-113
-113
-114
-113
-113
-112
-111
-113
-113
-113
-113
-112
-113
-112
-113
-113
-111
-113
-112
-111
-111
-112
-112
-112
-112
-113
-112
-112
-112
-111
-111
-111
-111
-111
-111
-111
-111
-110
-110
-111
-111
-110
-110
-111
-110
-110
-110
-110
-111
-110
-110
-110
-110
-111
-111
-111
-111
-109
-111
-111
-111
-111
-111
-112
-111
-112
-112
-112
-112
-112
-113
-112
-111
-112
-112
-113
-113
-113
-112
-113
-113
-113
-112
-113
-113
-113
-114
-114
-114
-115
-114
-113
-113
-113
-114
-114
-114
-113
-113
-113
-114
-114
-114
-115
-115
-115
-114
-114
-113
-115
-115
-115
-114
-114
-114
-114
-114
-114
-114
-114
-115
-115
-114
-114
-114
-114
-114
-114
-114
-115
-115
-115
-114
-114
-115
-115
-115
-114
-114
-115
-115
-116
-115
-115
-115
-115
-115
-116
-115
-113
-115
-115
-114
-115
-112
-115
-115
-114
-114
-113
-114
-114
-114
-114
-108
-111
-115
-116
-117
-116
-117
-88
-82
-86
-89
-93
-96
-99
-101
-101
-102
-103
-104
-104
-104
-104
-105
-106
-106
-106
-107
-108
-108
-108
-108
-107
-107
-107
-108
-109
-109
-110
-110
-110
-110
-110
-110
-110
-110
-110
-110
-110
-110
-110
-110
-110
-111
-111
-111
-111
-111
-111
-112
-111
-111
-111
-111
-112
-111
-111
-112
-112
-112
-111
-113
-112
-112
-112
-112
-112
-113
-112
-112
-112
-113
-112
-112
-112
-113
-113
-113
-112
-112
-112
-112
-113
-113
-113
-113
-113
-113
-112
-113
-113
-113
-112
-114
-113
-113
-113
-113
-113
-113
-113
-113
-113
-113
-113
-113
-113
-113
-114
-114
-114
-113
-113
-113
-114
-114
-114
-113
-113
-113
-114
-114
-114
-114
-114
-114
-114
-114
-114
-114
-113
-114
-114
-114
-113
-113
-114
-114
-114
-114
-114
-114
-114
-114
-114
-114
-115
-114
-114
-114
-114
-114
-114
-114
-114
-114
-114
-114
-114
-114
-114
-114
-115
-115
-114
-114
-114
-114
-114
-114
-114
-115
-114
-114
-114
-114
-114
-114
-115
-113
-114
-114
-114
-114
-114
-114
-115
-114
-113
-114
-114
-115
-115
-115
-114
-115
-114
-114
-115
-115
-115
-115
-115
-114
-114
-114
-115
-115
-115
-115
-114
-114
-115
-115
-115
-114
-115
-115
-114
-114
-114
-114
-114
-114
-114
-114
-115
-115
-114
-115
-115
-115
-114
-114
-115
-114
-114
-114
-114
-114
-114
-114
-114
-114
-114
-114
-115
-114
-114
-114
-114
-115
-115
-115
-115
-114
-115
-115
-115
-115
-115
-114
-114
-114
-114
-114
-114
-114
-114
-115
-114
-115
-114
-115
-114
-114
-114
-114
-114
-114
-114
-114
-114
-114
-114
-114
-114
-114
-114
-114
-114
-114
-113
-113
-114
-114
-114
-114
-114
-113
-113
-114
-114
-114
-114
-113
-114
-113
-114
-114
-113
-113
-113
-113
-113
-113
-112
-113
-113
-113
-113
-113
-112
-112
-112
-112
-112
-112
-112
-112
-111
-112
-112
-112
-112
-111
-112
-111
-112
-113
-113
-112
-112
-111
-112
-111
-111
-112
-113
-112
-112
-112
-113
-112
-113
-113
-112
-113
-112
-113
-113
-113
-113
-113
-114
-114
-113
-114
-114
-114
-114
-113
-113
-113
-114
-115
-114
-113
-114
-114
-113
-113
-114
-114
-114
-114
-114
-114
-114
-115
-115
-114
-115
-114
-114
-114
-114
-113
-114
-114
-114
-115
-114
-115
-115
-114
-115
-115
-115
-115
-114
-115
-115
-115
-115
-115
-115
-115
-115
-115
-114
-114
-115
-114
-115
-115
-115
-115
-115
-115
-115
-114
-115
-115
-115
-115
-115
-114
-114
-115
-115
-115
-116
-115
-115
-115
-115
-116
-116
-116
-115
-116
-115
-115
-115
-115
-115
-115
-115
-115
-115
-115
-115
-115
-116
-115
-115
-115
-115
-115
-115
-116
-115
-116
-115
-116
-115
-115
-115
-115
-115
-115
-115
-115
-115
-115
-114
-115
-115
-115
-115
-114
-115
-114
-114
-115
-115
-115
-115
-115
-115
-115
-115
-115
-115
-115
-116
-116
-118
-118
-119
0
0
6
0
-13
1
0
-4
2344
4687
0
-15
-3
-20
0
9830
1638
655
0
-20
0
0
300
300
0
0
0
0
32767
0
4
10976
96
-96
28642
0
0
-13
16384
16384
16384
16384
16384
-12
-18
96
440
6826
6826
6826
6826
6826
0
1
20
-3
-15
-15
1
0
-6
-6
1000
1000
3
3
0
0
300
0
100
1
1
12000
1
50
6
7782
200
100
-2560
550
300
2560
1700
100
-2560
2700
100
-4096
14000
300
-4096
16000
200
-2560
8306
100
-7782
13105
100
-5120
13857
200
-7782
18000
100
2
0
200
100
-16
2000
100
-16
0
2
20
5
0
20
0
0
20
3000
-90
-65
-45
-23
0
-96
-65
-42
-18
-18
0
-13
4000
5
0
20
0
0
20
3000
-90
-65
-45
-25
0
-96
-65
-42
-20
-20
0
-13
20
2
1
20
0
0
10000
10000
-96
0
0
0
0
-96
0
0
0
0
1
0
20
2
1
20
0
0
10000
10000
-85
0
0
0
0
-96
0
0
0
0
1
0
20
2
1
20
0
0
10000
10000
-96
0
0
0
0
-96
0
0
0
0
1
0
1
20
5
0
20
0
0
20
3000
-96
-60
-40
-15
0
-96
-60
-40
-15
-15
0
-13
1
-2
11
0
0
90
75
100
10
10
0
0
-20
-20
-96
-20
-6
1
50
0
10
0
0
0
0
40
22
43
0
132
0
92
0
4
4
10
0
0
1
2
1
0
0
0
0
0
-31
0
15
96
86
6826
6826
6826
6826
6826
6826
6826
6826
6826
6826

// Volume
